Div,Date,HomeTeam,AwayTeam,FTHG,FTAG,FTR,HTHG,HTAG,HTR,HS,AS,HST,AST,HF,AF,HC,AC,HY,AY,HR,AR,B365H,B365D,B365A,BWH,BWD,BWA,IWH,IWD,IWA,LBH,LBD,LBA,PSH,PSD,PSA,WHH,WHD,WHA,VCH,VCD,VCA,Bb1X2,BbMxH,BbAvH,BbMxD,BbAvD,BbMxA,BbAvA,BbOU,BbMx>2.5,BbAv>2.5,BbMx<2.5,BbAv<2.5,BbAH,BbAHh,BbMxAHH,BbAvAHH,BbMxAHA,BbAvAHA,PSCH,PSCD,PSCA
SP1,19/08/16,La Coruna,Eibar,2,1,H,0,0,D,11,12,6,6,14,17,1,8,3,3,0,0,1.95,3.4,4.2,1.95,3.3,4.2,2,3.3,3.6,1.95,3.25,4.2,2.01,3.39,4.39,1.95,3.25,4.2,2,3.4,4.3,58,2.05,1.97,3.44,3.31,4.44,4.18,43,2.47,2.34,1.63,1.58,33,-0.5,2.01,1.95,1.94,1.89,2.05,3.39,4.2
SP1,19/08/16,Malaga,Osasuna,1,1,D,0,0,D,14,8,4,3,11,22,5,3,2,3,0,0,1.62,3.75,6,1.65,3.5,6.25,1.7,3.6,4.7,1.6,3.6,6.5,1.61,3.89,7,1.67,3.4,6,1.62,3.8,6.5,57,1.7,1.62,3.89,3.66,7,6.24,41,2.44,2.31,1.65,1.6,34,-1,2.29,2.11,1.82,1.76,1.66,3.78,6.59
SP1,20/08/16,Barcelona,Betis,6,2,H,3,1,H,30,6,12,2,17,13,10,2,1,3,0,0,1.08,11,29,1.09,11,23,1.1,8,20,1.09,11,29,1.1,13,29.5,1.1,8,26,1.07,13,31,57,1.15,1.09,13.25,10.4,34,26.95,36,1.31,1.29,3.8,3.52,34,-2.5,1.87,1.78,2.15,2.08,1.1,12.65,29.5
SP1,20/08/16,Granada,Villarreal,1,1,D,0,0,D,7,12,1,3,17,11,7,3,2,3,0,0,2.5,3.2,3,2.55,3.1,3,2.6,3.2,2.6,2.5,3,2.9,2.61,3.19,3.09,2.62,3.1,2.75,2.55,3.2,3,56,2.62,2.54,3.21,3.13,3.11,2.92,40,2.42,2.33,1.65,1.58,30,0,1.83,1.79,2.15,2.07,2.76,3.22,2.89
SP1,20/08/16,Sevilla,Espanol,6,4,H,3,3,D,16,10,11,7,8,15,8,2,2,2,0,0,1.67,4,5,1.67,3.9,5.25,1.6,3.7,5.4,1.67,3.8,4.75,1.73,4.02,5.18,1.73,3.5,5,1.73,4,5,57,1.73,1.68,4.07,3.86,5.5,5.04,44,1.82,1.74,2.17,2.07,36,-1,2.26,2.16,1.84,1.72,1.71,3.93,5.49
SP1,21/08/16,Ath Madrid,Alaves,1,1,D,0,0,D,27,2,6,1,7,15,20,2,0,4,0,0,1.2,6.5,17,1.2,6,18.5,1.22,5.5,12,1.22,5.5,17,1.23,6.25,20.4,1.2,6,15,1.22,6.25,19,56,1.28,1.21,6.5,5.88,21,16.97,43,2.02,1.94,1.92,1.85,34,-1.5,1.82,1.76,2.17,2.09,1.24,6,20
SP1,21/08/16,Sociedad,Real Madrid,0,3,A,0,2,A,8,18,0,8,22,11,4,7,2,3,0,0,4.75,3.8,1.75,5,3.75,1.72,4.5,3.7,1.7,4.5,3.8,1.75,5.13,3.98,1.74,4.5,3.5,1.8,4.8,3.9,1.75,57,5.13,4.66,4,3.81,1.8,1.74,40,1.83,1.73,2.25,2.09,33,1,1.68,1.64,2.38,2.29,5.49,4.02,1.69
SP1,21/08/16,Sp Gijon,Ath Bilbao,2,1,H,0,0,D,12,13,4,4,18,15,2,5,3,3,0,0,4,3.5,1.95,4.2,3.5,1.91,3.6,3.3,2,4,3.4,1.91,4.4,3.54,1.96,3.75,3.4,2,4.3,3.5,1.95,56,4.4,4.06,3.6,3.41,2,1.94,42,2.24,2.15,1.76,1.69,32,0.5,1.98,1.91,1.98,1.94,4.66,3.57,1.9
SP1,22/08/16,Celta,Leganes,0,1,A,0,0,D,10,15,2,6,5,13,8,4,4,1,0,1,1.65,3.75,5.75,1.57,3.9,6.25,1.6,3.7,5.4,1.6,3.75,6,1.63,4,6.47,1.55,4,6,1.62,4,6.25,54,1.67,1.6,4,3.83,6.47,5.89,41,2.13,2.02,1.88,1.77,34,-1,2.16,2.07,1.9,1.78,1.68,3.84,6.09
SP1,22/08/16,Valencia,Las Palmas,2,4,A,2,3,A,17,6,8,4,15,18,12,1,2,2,0,0,1.73,3.75,5,1.7,3.8,5,1.75,3.5,4.5,1.73,3.6,4.75,1.77,3.89,5.07,1.65,4,5,1.75,3.8,5,55,1.79,1.73,4,3.71,5.07,4.84,42,1.98,1.9,1.96,1.88,33,-1,2.45,2.32,1.68,1.62,1.75,3.89,5.23
SP1,26/08/16,Betis,La Coruna,0,0,D,0,0,D,15,12,5,1,20,15,13,2,0,2,0,0,2.2,3.2,3.5,2.2,3.3,3.4,2.3,3.3,2.9,2.15,3.2,3.5,2.22,3.34,3.7,2.25,3.2,3.3,2.25,3.3,3.5,54,2.33,2.21,3.37,3.22,3.7,3.46,43,2.34,2.21,1.7,1.64,30,-0.25,1.92,1.88,2.05,1.98,2.21,3.37,3.69
SP1,26/08/16,Espanol,Malaga,2,2,D,1,0,H,7,9,2,3,20,17,3,4,2,4,0,0,2.3,3.1,3.4,2.25,3.25,3.4,2.3,3.2,3,2.3,3.1,3.25,2.38,3.27,3.39,2.3,3.2,3.25,2.3,3.25,3.4,54,2.4,2.32,3.3,3.18,3.41,3.26,42,2.42,2.32,1.65,1.59,30,-0.25,2.03,1.98,1.92,1.88,2.34,3.25,3.51
SP1,27/08/16,Eibar,Valencia,1,0,H,0,0,D,13,13,6,3,13,11,6,10,2,2,0,0,2.7,3.2,2.75,2.6,3.2,2.8,2.6,3.2,2.6,2.62,3.1,2.7,2.78,3.25,2.84,2.62,3.1,2.8,2.75,3.25,2.8,54,2.8,2.67,3.29,3.18,2.85,2.75,42,2.3,2.14,1.75,1.69,29,0.25,1.67,1.63,2.4,2.32,2.84,3.34,2.72
SP1,27/08/16,Leganes,Ath Madrid,0,0,D,0,0,D,6,10,1,3,19,5,1,8,3,1,0,0,8.5,3.6,1.53,7,3.8,1.55,5.4,3.7,1.6,7,3.6,1.55,7.88,3.83,1.58,7.5,3.5,1.57,8,3.8,1.57,53,8.5,7.32,3.9,3.65,1.62,1.56,38,2.6,2.49,1.57,1.51,33,1,1.88,1.83,2.1,2.03,9.31,4.02,1.51
SP1,27/08/16,Osasuna,Sociedad,0,2,A,0,1,A,8,5,3,4,14,14,10,1,2,1,0,0,3.1,3.1,2.5,3,3.2,2.5,2.6,3.2,2.6,3.1,3,2.5,3.19,3.13,2.59,3,3,2.5,3.13,3.13,2.55,54,3.19,3.04,3.2,3.06,2.65,2.52,39,2.7,2.52,1.57,1.5,28,0.25,1.8,1.75,2.23,2.13,3.12,3.22,2.57
SP1,27/08/16,Real Madrid,Celta,2,1,H,0,0,D,24,8,10,3,8,11,7,2,0,2,0,0,1.18,7,17,1.2,7,13,1.2,5.8,13,1.2,7,12,1.22,7.9,14.09,1.2,7,13,1.2,7.5,15,54,1.27,1.21,7.9,6.98,17,12.8,34,1.37,1.32,3.5,3.27,34,-2,1.99,1.92,1.98,1.93,1.18,8.5,17.85
SP1,28/08/16,Alaves,Sp Gijon,0,0,D,0,0,D,13,7,2,1,10,12,4,6,1,1,0,0,2.15,3.2,3.75,2.15,3.25,3.6,2.2,3.2,3.2,2.1,3.1,3.8,2.15,3.26,4.02,2.15,3.2,3.5,2.1,3.25,3.75,52,2.2,2.14,3.26,3.2,4.02,3.68,37,2.6,2.44,1.57,1.53,29,-0.25,1.9,1.84,2.12,2.02,2.52,3.14,3.28
SP1,28/08/16,Ath Bilbao,Barcelona,0,1,A,0,1,A,9,12,4,3,20,13,4,4,5,4,0,0,6.5,4.33,1.5,6.5,4.33,1.5,6,4.5,1.45,5.75,4.33,1.53,6.44,4.66,1.54,6,4.33,1.5,6,4.6,1.5,53,6.7,6.09,4.9,4.41,1.6,1.52,38,1.64,1.56,2.55,2.35,33,1,2.06,2,1.9,1.85,6.33,4.37,1.58
SP1,28/08/16,Las Palmas,Granada,5,1,H,1,1,D,15,13,10,2,8,16,6,4,5,1,0,0,1.91,3.4,4.33,1.9,3.5,4.2,2,3.2,3.75,1.85,3.4,4.33,1.91,3.6,4.58,1.95,3.4,4,1.87,3.6,4.2,53,2.02,1.9,3.6,3.45,4.58,4.25,42,2.11,2.03,1.83,1.76,28,-0.25,1.68,1.63,2.42,2.32,1.83,3.85,4.7
SP1,28/08/16,Villarreal,Sevilla,0,0,D,0,0,D,12,6,5,0,16,12,5,1,1,3,0,0,2.5,3.4,2.8,2.55,3.4,2.75,2.5,3.3,2.65,2.5,3.3,2.8,2.6,3.42,2.91,2.5,3.3,2.8,2.45,3.4,2.88,53,2.6,2.5,3.5,3.33,2.92,2.84,42,1.9,1.83,2.05,1.94,28,0,1.86,1.8,2.13,2.05,2.4,3.5,3.15
SP1,09/09/16,Sociedad,Espanol,1,1,D,0,0,D,9,4,3,1,10,10,11,1,2,2,0,1,2.05,3.4,3.75,2,3.4,3.9,2,3.3,3.6,2,3.3,3.8,2.06,3.53,4,2.05,3.4,3.6,2.05,3.5,3.9,56,2.1,2.03,3.56,3.41,4.01,3.82,44,2.15,2.04,1.84,1.76,31,-0.75,2.43,2.35,1.67,1.62,1.99,3.62,4.14
SP1,10/09/16,Barcelona,Alaves,1,2,A,0,1,A,16,5,2,4,12,12,13,0,1,1,0,0,1.07,12,34,1.07,11.5,36,1.08,9,22,1.08,12,34,1.1,12.25,34,1.08,11,26,1.06,13,36,56,1.14,1.07,14.5,11.58,46,32.36,37,1.3,1.26,4.1,3.74,29,-2.5,1.7,1.66,2.35,2.25,1.09,13.38,32.32
SP1,10/09/16,Celta,Ath Madrid,0,4,A,0,0,D,9,13,1,6,13,12,6,4,1,2,0,0,6,3.3,1.73,5.5,3.6,1.7,4.2,3.5,1.8,5.25,3.3,1.75,5.64,3.59,1.78,4.8,3.4,1.8,5.25,3.5,1.8,53,6,5.25,3.6,3.43,1.81,1.77,40,2.66,2.5,1.59,1.51,31,0.75,1.88,1.84,2.08,2.02,6.1,3.61,1.73
SP1,10/09/16,Malaga,Villarreal,0,2,A,0,2,A,15,12,2,6,8,14,9,7,2,1,0,0,2.3,3.1,3.3,2.4,3.1,3.25,2.4,3.2,2.85,2.3,3.1,3.3,2.39,3.24,3.41,2.5,3.2,2.88,2.38,3.2,3.4,56,2.5,2.37,3.3,3.15,3.42,3.21,40,2.61,2.46,1.58,1.53,30,-0.25,2.08,2,1.91,1.86,2.53,3.11,3.3
SP1,10/09/16,Real Madrid,Osasuna,5,2,H,3,0,H,25,10,11,3,14,14,6,7,2,2,0,1,1.04,15,34,1.06,13.5,29,1.07,9.5,22,1.06,15,41,1.07,19,33.5,1.07,11,29,1.05,19,46,56,1.13,1.06,19,13.74,55,36.19,38,1.24,1.2,4.7,4.3,33,-3,1.85,1.8,2.13,2.06,1.07,17.7,36.4
SP1,10/09/16,Sevilla,Las Palmas,2,1,H,0,1,A,16,7,7,4,15,13,10,1,2,4,0,1,1.5,4.33,6,1.57,4.2,5.75,1.7,3.7,4.5,1.53,4.33,5.75,1.55,4.66,6.27,1.57,3.6,6.5,1.6,4.6,5.4,56,1.7,1.56,4.73,4.31,6.5,5.68,38,1.55,1.5,2.66,2.54,36,-1,1.95,1.87,2.05,1.98,1.53,4.61,6.71
SP1,11/09/16,Granada,Eibar,1,2,A,0,1,A,15,10,5,8,7,8,6,7,2,0,0,1,2.15,3.25,3.5,2.2,3.4,3.3,2.3,3.1,3.1,2.15,3.3,3.3,2.23,3.49,3.5,2.25,3.2,3.3,2.2,3.4,3.3,56,2.34,2.22,3.5,3.36,3.53,3.3,45,2.06,1.98,1.9,1.81,32,-0.25,2.02,1.91,2.01,1.95,2.58,3.24,3.09
SP1,11/09/16,La Coruna,Ath Bilbao,0,1,A,0,1,A,16,7,3,2,15,15,7,6,2,3,0,0,3.6,3.25,2.15,3.4,3.3,2.2,3.1,3.3,2.2,3.4,3.2,2.2,3.55,3.38,2.26,3.3,3.2,2.25,3.5,3.25,2.2,55,3.66,3.43,3.45,3.28,2.26,2.2,42,2.45,2.32,1.64,1.59,32,0.25,2.02,1.97,1.93,1.88,3.68,3.3,2.25
SP1,11/09/16,Sp Gijon,Leganes,2,1,H,2,0,H,7,9,4,2,12,16,3,5,0,2,0,0,2.25,3.2,3.4,2.2,3.25,3.5,2.2,3.15,3.25,2.2,3.1,3.4,2.29,3.31,3.56,2.3,3.2,3.2,2.25,3.3,3.5,55,2.32,2.24,3.31,3.22,3.62,3.42,40,2.54,2.41,1.6,1.55,32,-0.25,1.95,1.91,2,1.94,2.63,3.07,3.18
SP1,11/09/16,Valencia,Betis,2,3,A,0,1,A,23,12,9,5,15,21,5,5,2,4,1,0,1.65,4.2,5,1.7,4,4.75,1.75,3.5,4.5,1.65,3.8,5.25,1.68,4.08,5.53,1.73,3.5,5,1.67,4.1,5.4,56,1.75,1.68,4.2,3.88,5.53,5.05,46,1.9,1.83,2.05,1.96,34,-1,2.26,2.18,1.75,1.71,1.55,4.42,6.74
SP1,16/09/16,Betis,Granada,2,2,D,1,2,A,23,15,7,8,13,17,7,3,4,3,1,1,1.73,3.75,5,1.78,3.7,4.6,1.9,3.45,3.8,1.73,3.6,4.75,1.79,3.82,5.04,1.8,3.6,4.4,1.75,3.8,5,57,1.9,1.77,3.83,3.68,5.25,4.74,46,1.97,1.89,1.97,1.9,33,-1,2.5,2.34,1.65,1.62,1.75,3.96,5.14
SP1,17/09/16,Ath Madrid,Sp Gijon,5,0,H,3,0,H,18,10,7,1,14,9,1,4,0,2,0,0,1.18,6.5,21,1.2,5.5,17.5,1.22,5.5,12,1.22,5.75,17,1.22,6.5,21.3,1.22,5.5,17,1.22,6.25,19,54,1.28,1.21,6.75,5.94,22,18.06,44,1.99,1.91,1.94,1.87,29,1.75,2.03,1.97,1.92,1.88,1.2,7.35,19.75
SP1,17/09/16,Eibar,Sevilla,1,1,D,0,1,A,10,8,2,4,19,10,4,2,1,1,2,0,3.1,3.3,2.35,2.95,3.3,2.35,2.75,3.3,2.4,2.9,3.3,2.38,3.08,3.5,2.44,3,3.2,2.38,3,3.5,2.45,54,3.1,2.95,3.57,3.39,2.48,2.39,46,1.9,1.82,2.05,1.97,27,0.25,1.85,1.81,2.1,2.05,3.01,3.46,2.51
SP1,17/09/16,Las Palmas,Malaga,1,0,H,1,0,H,6,10,2,2,11,18,2,2,3,1,0,0,2.3,3.25,3.3,2.1,3.3,3.4,2.25,3.2,3.1,2.2,3.25,3.3,2.28,3.44,3.44,2.3,3.1,3.2,2.3,3.4,3.3,56,2.33,2.26,3.44,3.27,3.6,3.31,44,2.19,2.11,1.8,1.72,28,-0.25,1.99,1.94,1.97,1.92,2.26,3.44,3.48
SP1,17/09/16,Leganes,Barcelona,1,5,A,0,3,A,15,10,6,7,28,7,2,5,4,2,0,0,17,7,1.18,13.5,6.5,1.19,12.5,6,1.2,15,7,1.18,17,7.7,1.2,17,6,1.2,19,7.5,1.18,56,19,15.73,7.9,6.95,1.25,1.19,36,1.5,1.45,2.8,2.66,33,2,2,1.94,1.96,1.9,18.25,7.9,1.19
SP1,18/09/16,Ath Bilbao,Valencia,2,1,H,2,1,H,13,10,4,2,19,20,7,1,4,4,0,0,1.85,3.6,4.33,1.85,3.5,4.1,1.8,3.5,4.2,1.85,3.4,4.2,1.93,3.65,4.35,1.91,3.2,4.33,1.9,3.6,4.1,55,1.96,1.9,3.75,3.54,4.4,4.12,45,2,1.91,1.97,1.87,28,-0.5,1.94,1.9,2,1.94,1.89,3.74,4.46
SP1,18/09/16,Espanol,Real Madrid,0,2,A,0,1,A,11,13,2,7,19,8,4,5,4,2,0,0,7.5,5.5,1.36,8.25,5,1.33,9,5,1.3,7,4.75,1.4,7.76,5.33,1.42,9,4.5,1.36,7,5.2,1.4,56,9,7.64,5.54,5.01,1.46,1.39,38,1.51,1.46,2.8,2.62,32,1.5,1.85,1.78,2.15,2.06,7.84,5.13,1.43
SP1,18/09/16,Osasuna,Celta,0,0,D,0,0,D,9,13,2,5,18,13,3,5,4,1,0,0,2.9,3.1,2.6,2.9,3.1,2.5,2.6,3.2,2.6,2.88,3,2.6,2.98,3.17,2.71,2.9,3.1,2.5,3,3.2,2.63,55,3.03,2.89,3.25,3.12,2.71,2.6,43,2.47,2.33,1.67,1.59,29,0,2.08,2.02,1.87,1.83,2.5,3.31,2.32
SP1,18/09/16,Villarreal,Sociedad,2,1,H,2,1,H,9,15,4,2,13,16,3,6,2,3,0,1,1.85,3.5,4.5,1.9,3.25,4.25,1.9,3.45,3.8,1.85,3.3,4.5,1.88,3.51,4.9,1.83,3.4,4.5,1.85,3.4,4.6,55,1.92,1.86,3.57,3.39,5,4.58,43,2.42,2.32,1.65,1.59,28,-0.5,1.89,1.85,2.06,1.99,1.85,3.42,5.35
SP1,19/09/16,Alaves,La Coruna,0,0,D,0,0,D,9,16,1,1,16,8,4,5,3,4,0,0,2.3,3,3.5,2.2,3.2,3.3,2.2,3.2,3.2,2.25,3,3.4,2.38,3.15,3.54,2.4,3.1,3.1,2.25,3.2,3.4,52,2.4,2.29,3.25,3.12,3.65,3.4,39,2.57,2.43,1.59,1.54,27,-0.25,2.01,1.94,1.96,1.91,2.4,3.11,3.55
SP1,20/09/16,Malaga,Eibar,2,1,H,1,1,D,14,12,6,3,7,13,7,5,2,4,0,0,1.85,3.4,4.75,1.8,3.6,4.6,1.75,3.5,5,1.85,3.3,4.5,1.89,3.5,4.82,1.85,3.4,4.4,1.85,3.6,4.75,57,1.89,1.84,3.63,3.43,5,4.68,45,2.31,2.21,1.72,1.65,32,-0.5,1.89,1.84,2.06,2.01,1.79,3.51,5.65
SP1,20/09/16,Sevilla,Betis,1,0,H,0,0,D,12,8,3,3,24,17,6,2,5,4,0,0,1.45,4.5,7,1.5,4.1,7,1.5,4.5,6,1.48,4.5,6,1.5,4.87,6.79,1.5,4,7,1.5,4.8,6.5,57,1.54,1.49,4.87,4.49,7.2,6.55,38,1.59,1.56,2.6,2.45,36,-1,1.8,1.75,2.2,2.12,1.54,4.44,6.8
SP1,21/09/16,Barcelona,Ath Madrid,1,1,D,1,0,H,19,9,7,4,14,17,8,2,2,4,0,0,1.6,4,5.5,1.62,4,5.5,1.6,4,5.5,1.6,3.8,5.5,1.63,4.16,6.02,1.62,3.8,5.5,1.62,4.2,5.75,56,1.68,1.62,4.22,4,6.02,5.5,43,1.85,1.78,2.09,2.01,34,-1,2.15,2.05,1.86,1.8,1.54,4.51,6.74
SP1,21/09/16,Celta,Sp Gijon,2,1,H,0,0,D,16,4,5,1,16,8,8,0,2,3,0,0,1.57,4,6,1.57,4,6.25,1.65,3.8,5.3,1.55,3.8,6,1.59,4.2,6.51,1.6,4,5.5,1.57,4.2,6.25,54,1.65,1.57,4.36,4.03,6.75,6.07,44,1.92,1.84,2.02,1.94,33,-1,2.05,1.97,1.93,1.88,1.63,4.22,5.88
SP1,21/09/16,Granada,Ath Bilbao,1,2,A,1,1,D,13,13,2,8,8,9,6,3,1,0,0,0,4.5,3.5,1.85,4,3.6,1.91,3.8,3.4,2,4,3.5,1.91,4.22,3.63,1.97,4.33,3.2,1.91,4.2,3.6,1.95,56,4.5,4.17,3.65,3.47,2,1.92,43,2.1,2.02,1.87,1.78,29,0.75,1.75,1.71,2.28,2.19,4.33,3.63,1.94
SP1,21/09/16,Real Madrid,Villarreal,1,1,D,0,1,A,22,8,6,3,9,9,17,3,4,1,0,0,1.2,7,15,1.25,6.5,10.5,1.2,6.5,15,1.22,6.5,13,1.23,7.32,14.5,1.25,5.5,13,1.22,7,13,56,1.28,1.22,7.45,6.51,15,13.02,38,1.47,1.44,2.9,2.76,34,-2,2.1,2.02,1.89,1.83,1.26,6.77,12.24
SP1,21/09/16,Sociedad,Las Palmas,4,1,H,3,0,H,17,8,7,3,3,7,7,4,1,2,0,1,2,3.5,3.75,2.05,3.4,3.7,2,3.3,3.9,1.95,3.4,3.8,2.03,3.64,3.98,2.05,3.4,3.6,2,3.6,3.9,56,2.1,2.01,3.65,3.46,4,3.79,44,1.95,1.86,2.01,1.93,29,-0.5,2.04,1.99,1.91,1.85,1.88,3.65,4.67
SP1,22/09/16,La Coruna,Leganes,1,2,A,1,0,H,12,8,5,2,20,18,7,1,0,3,0,0,2.15,3.25,3.6,2.15,3.1,3.75,2,3.2,4.1,2.1,3.1,3.6,2.19,3.29,3.84,2.15,3.1,3.75,2.1,3.2,3.75,55,2.2,2.13,3.33,3.18,4.1,3.73,38,2.55,2.43,1.59,1.53,29,-0.25,1.88,1.82,2.08,2.04,2.26,3.2,3.77
SP1,22/09/16,Osasuna,Espanol,1,2,A,0,1,A,17,10,11,2,16,14,7,1,2,1,0,0,2.88,3.2,2.6,2.95,3.2,2.5,2.65,3.3,2.65,2.9,3.1,2.5,3.01,3.23,2.64,2.9,3.1,2.5,2.88,3.25,2.55,55,3.03,2.91,3.3,3.16,2.66,2.55,43,2.28,2.18,1.71,1.66,30,0,2.1,2.04,1.85,1.81,3.36,3.23,2.42
SP1,22/09/16,Valencia,Alaves,2,1,H,1,1,D,12,8,2,1,14,13,7,4,2,3,0,0,1.57,3.75,6,1.55,4,6.5,1.75,3.8,4.5,1.55,3.8,6,1.57,4.25,6.66,1.62,3.8,5.5,1.55,4.2,6,55,1.75,1.58,4.29,4.01,6.66,5.97,43,1.91,1.85,2.01,1.93,33,-1,2.03,1.97,1.92,1.87,1.55,4.4,6.73
SP1,23/09/16,Betis,Malaga,1,0,H,1,0,H,11,16,4,6,20,15,6,5,4,6,0,0,2.6,3.1,2.9,2.55,3.2,2.9,2.55,3.15,2.9,2.6,3.1,2.8,2.69,3.23,2.95,2.7,3.2,2.8,2.63,3.2,2.9,55,2.73,2.62,3.28,3.16,3,2.87,43,2.3,2.17,1.75,1.68,31,0.25,1.65,1.59,2.5,2.41,2.57,3.25,3.09
SP1,24/09/16,Ath Bilbao,Sevilla,3,1,H,1,0,H,14,5,7,2,9,9,4,5,2,2,0,1,2.05,3.4,3.75,2.1,3.3,3.7,2.1,3.4,3.5,2,3.4,3.6,2.09,3.61,3.78,2.1,3.4,3.75,2.1,3.6,3.6,55,2.14,2.06,3.65,3.49,3.8,3.6,43,1.95,1.84,2.02,1.94,29,-0.5,2.11,2.06,1.85,1.8,1.99,3.47,4.38
SP1,24/09/16,Eibar,Sociedad,2,0,H,0,0,D,17,3,3,0,15,13,5,3,4,2,0,1,2.45,3.2,3,2.55,3.1,2.95,2.6,3.2,2.8,2.5,3.1,2.9,2.58,3.24,3.09,2.62,3.2,2.9,2.55,3.3,3,56,2.64,2.55,3.3,3.19,3.09,2.92,43,2.32,2.21,1.72,1.65,31,0.25,1.6,1.56,2.62,2.47,2.75,3.24,2.88
SP1,24/09/16,Las Palmas,Real Madrid,2,2,D,1,1,D,8,27,6,11,7,19,0,5,3,2,0,0,8.5,5,1.36,8.75,5.25,1.34,8,5,1.37,7,5,1.36,8.22,5.43,1.4,8,5.5,1.36,8,5.5,1.36,55,8.75,7.87,5.63,5.17,1.43,1.37,36,1.43,1.39,3.2,2.88,33,1.5,1.92,1.87,2.12,1.99,9.15,5.8,1.35
SP1,24/09/16,Sp Gijon,Barcelona,0,5,A,0,2,A,10,13,3,7,15,10,4,3,1,0,1,0,13,6.5,1.22,11.5,5.75,1.26,9.5,5.5,1.3,10,5.75,1.29,12.3,6.25,1.28,10,6,1.29,11,6.25,1.29,54,13,10.97,6.5,5.9,1.33,1.27,36,1.53,1.48,2.75,2.58,33,2,1.68,1.64,2.38,2.3,12.93,6.79,1.26
SP1,25/09/16,Ath Madrid,La Coruna,1,0,H,0,0,D,21,8,5,1,13,19,10,0,1,2,0,1,1.22,5.5,19,1.19,6.5,17,1.22,6.5,12.5,1.22,6,15,1.23,6.7,17.8,1.22,6.5,15,1.22,6.5,17,55,1.28,1.22,6.7,6.06,19,16.09,43,1.81,1.72,2.19,2.09,33,-2,2.36,2.25,1.7,1.67,1.22,6.79,19.37
SP1,25/09/16,Espanol,Celta,0,2,A,0,0,D,10,12,2,4,15,13,4,7,2,3,0,0,2.25,3.3,3.3,2.35,3.2,3.2,2.2,3.35,3.3,2.25,3.25,3.2,2.32,3.45,3.34,2.3,3.4,3.2,2.25,3.4,3.2,55,2.4,2.3,3.45,3.31,3.4,3.22,43,2.07,1.99,1.88,1.81,30,-0.25,2,1.95,1.96,1.9,2.33,3.38,3.4
SP1,25/09/16,Leganes,Valencia,1,2,A,1,1,D,7,10,3,4,19,17,1,5,4,4,0,0,2.8,3.2,2.6,2.75,3.25,2.65,2.85,3.3,2.5,2.75,3.2,2.6,2.85,3.34,2.71,2.8,3.3,2.62,2.9,3.3,2.63,55,2.95,2.8,3.4,3.26,2.71,2.6,42,2.25,2.14,1.78,1.7,31,0,2.06,1.99,1.91,1.86,3.09,3.39,2.46
SP1,25/09/16,Villarreal,Osasuna,3,1,H,3,1,H,12,11,5,3,7,16,5,5,0,2,0,0,1.4,4.33,9.5,1.4,4.6,8.75,1.4,4.8,7.5,1.4,4.33,9,1.43,4.6,9.65,1.4,4.5,9.5,1.36,4.6,10,55,1.43,1.39,4.92,4.5,11,9.3,43,2.11,1.99,1.88,1.8,32,-1.5,2.28,2.18,1.74,1.71,1.4,4.9,10.07
SP1,26/09/16,Alaves,Granada,3,1,H,0,0,D,16,13,6,3,15,19,5,6,3,3,0,0,2.1,3.3,3.75,2.05,3.4,3.7,2,3.4,3.8,2.05,3.3,3.6,2.12,3.43,3.88,2.1,3.3,3.8,2.05,3.4,3.75,53,2.15,2.08,3.46,3.33,4.05,3.73,40,2.3,2.2,1.7,1.65,27,-0.5,2.12,2.08,1.84,1.79,1.95,3.51,4.48
SP1,30/09/16,Sociedad,Betis,1,0,H,0,0,D,16,5,8,2,17,22,4,2,2,3,0,0,1.8,3.5,4.75,1.78,3.4,4.6,1.85,3.5,4.3,1.8,3.4,4.5,1.87,3.62,4.8,1.8,3.75,4.6,1.87,3.6,4.6,54,1.87,1.82,3.75,3.53,5.1,4.65,48,2.07,1.99,1.89,1.81,31,-1,2.66,2.51,1.6,1.55,1.86,3.6,4.86
SP1,01/10/16,Granada,Leganes,0,1,A,0,0,D,8,9,1,3,13,20,6,4,1,0,0,0,2.45,3.3,3,2.4,3.2,2.95,2.4,3.2,3.05,2.4,3.25,2.9,2.49,3.42,3.08,2.5,3.3,3,2.5,3.4,3,55,2.55,2.45,3.45,3.27,3.12,2.98,49,2.23,2.14,1.8,1.7,29,0,1.79,1.75,2.21,2.12,2.49,3.26,3.21
SP1,01/10/16,La Coruna,Sp Gijon,2,1,H,1,0,H,21,7,6,2,17,26,11,4,0,4,0,0,1.95,3.4,4.2,1.91,3.2,4.2,2,3.3,3.95,1.95,3.25,4.2,2.01,3.39,4.41,2,3.3,4.2,2,3.4,4.33,54,2.01,1.96,3.53,3.32,4.5,4.2,47,2.4,2.3,1.66,1.61,29,-0.5,2.01,1.96,1.95,1.89,1.88,3.46,4.99
SP1,01/10/16,Osasuna,Las Palmas,2,2,D,2,0,H,5,17,3,5,17,7,1,12,3,4,0,0,2.6,3.2,2.8,2.6,3.2,2.7,2.75,3.25,2.6,2.6,3.2,2.75,2.69,3.35,2.86,2.7,3.2,2.8,2.7,3.3,2.88,55,2.8,2.65,3.38,3.24,2.88,2.76,49,2.11,2.05,1.84,1.76,31,0,1.94,1.87,2.04,1.97,2.77,3.46,2.7
SP1,01/10/16,Sevilla,Alaves,2,1,H,0,0,D,20,6,12,1,10,13,9,2,2,6,0,0,1.44,4.33,8,1.4,4.6,7.25,1.5,4.2,6.5,1.44,4.2,7.5,1.47,4.63,8,1.44,4.8,7,1.45,4.8,7.5,55,1.52,1.45,4.8,4.46,8.1,7.3,49,1.81,1.74,2.25,2.07,33,-1,1.79,1.74,2.21,2.13,1.43,4.85,8.84
SP1,02/10/16,Celta,Barcelona,4,3,H,3,0,H,14,13,9,4,16,11,3,6,1,3,0,0,8,4.75,1.4,7,4.75,1.4,7.5,4.8,1.4,6.5,4.75,1.4,7.71,4.94,1.45,8,4.5,1.44,7.5,5,1.4,55,8.1,7.48,5.09,4.71,1.49,1.42,41,1.62,1.55,2.55,2.42,33,1,2.38,2.3,1.69,1.64,8.52,4.97,1.43
SP1,02/10/16,Espanol,Villarreal,0,0,D,0,0,D,9,5,1,1,14,10,3,1,2,2,0,0,2.88,3.1,2.63,2.6,3.1,2.75,2.77,3.2,2.6,2.8,2.9,2.7,2.93,3.1,2.81,2.9,3.1,2.7,2.8,3.2,2.63,55,3,2.83,3.2,3.07,2.81,2.7,49,2.45,2.33,1.65,1.59,31,0,2.03,1.97,1.92,1.88,3.21,3.17,2.55
SP1,02/10/16,Malaga,Ath Bilbao,2,1,H,0,1,A,15,7,3,1,19,11,7,2,7,3,1,1,2.45,3,3.3,2.5,3,2.95,2.75,3.25,2.6,2.4,2.9,3.2,2.52,3.09,3.33,2.62,3,3.1,2.4,3.2,3.13,55,2.75,2.5,3.25,3.06,3.33,3.12,44,2.51,2.42,1.6,1.55,29,0,1.8,1.72,2.28,2.17,2.64,3.19,3.05
SP1,02/10/16,Real Madrid,Eibar,1,1,D,1,1,D,15,7,3,4,8,15,7,5,4,5,0,0,1.08,11,26,1.09,9.75,21,1.11,9,23,1.09,12,29,1.1,13.4,25,1.12,9,26,1.06,13,29,55,1.15,1.09,13.5,10.88,35,25.74,41,1.26,1.22,4.6,4.13,30,-2.75,1.88,1.83,2.13,2.02,1.12,11,26.5
SP1,02/10/16,Valencia,Ath Madrid,0,2,A,0,0,D,14,17,5,10,10,15,6,5,1,3,0,0,4.5,3.5,1.85,4.25,3.5,1.83,4.1,3.5,1.9,4,3.5,1.91,4.55,3.5,1.94,4.5,3.4,1.91,4.33,3.5,1.95,55,4.6,4.23,3.67,3.48,1.97,1.91,48,2.15,2.04,1.86,1.77,29,0.75,1.75,1.7,2.28,2.2,4.67,3.66,1.88
SP1,14/10/16,Las Palmas,Espanol,0,0,D,0,0,D,13,5,8,2,13,21,8,4,2,3,0,0,1.95,3.4,4.2,2,3.6,3.9,2.1,3.4,3.5,2,3.3,3.8,2.04,3.51,4.09,2.05,3.5,3.75,1.95,3.5,3.9,47,2.12,2.02,3.6,3.43,4.2,3.86,40,2.05,1.95,2,1.85,24,-0.5,2.05,2,1.91,1.86,1.88,3.73,4.53
SP1,15/10/16,Ath Madrid,Granada,7,1,H,2,1,H,17,9,11,2,14,8,11,3,1,1,0,0,1.13,10,17,1.12,9,23,1.15,7.5,18,1.12,9,29,1.14,9.5,29.5,1.12,9,21,1.13,9,26,48,1.17,1.12,10,8.47,31.22,25.5,35,1.61,1.56,1.58,2.45,25,-2.5,2.15,2.08,1.81,1.78,1.12,10.72,30.65
SP1,15/10/16,Barcelona,La Coruna,4,0,H,3,0,H,25,7,8,0,5,15,8,2,1,2,0,1,1.1,10,26,1.11,9.5,23,1.12,9,20,1.11,10,26,1.12,11.5,25,1.11,10,23,1.12,11,23,48,1.17,1.11,11.66,9.63,30,23.41,41,1.36,1.3,3.78,3.45,27,-2.5,1.95,1.89,2.01,1.96,1.14,10.49,22.39
SP1,15/10/16,Betis,Real Madrid,1,6,A,0,4,A,13,22,2,9,14,8,2,5,4,1,0,0,8,5.25,1.36,8.25,5.25,1.36,8,5,1.37,7,5,1.36,7.94,5.46,1.41,8,5,1.36,8,5.5,1.36,48,9,7.79,5.65,5.18,1.44,1.38,41,1.45,1.41,3,2.86,26,1.5,1.9,1.86,2.04,1.99,10.93,6.38,1.3
SP1,15/10/16,Leganes,Sevilla,2,3,A,0,1,A,19,5,6,4,17,20,5,2,2,5,0,0,3.4,3.2,2.25,3.5,3.3,2.15,3.15,3.3,2.3,3.3,3.3,2.2,3.47,3.49,2.24,3.4,3.2,2.3,3.4,3.4,2.25,48,3.5,3.32,3.49,3.31,2.32,2.24,40,2.11,2.03,1.85,1.78,23,0.25,2,1.94,1.99,1.91,3.56,3.49,2.21
SP1,16/10/16,Alaves,Malaga,1,1,D,1,0,H,8,12,4,5,14,14,6,7,3,3,1,1,2.6,3,3,2.6,3,3,2.7,3.1,2.75,2.62,2.9,2.9,2.75,3.07,3.03,2.7,3,3,2.7,3.1,3,48,2.75,2.65,3.12,3,3.05,2.95,37,2.73,2.55,1.55,1.5,22,-0.25,2.33,2.23,1.72,1.68,2.92,3.08,2.84
SP1,16/10/16,Ath Bilbao,Sociedad,3,2,H,0,1,A,15,6,11,3,17,19,7,4,3,3,0,0,1.83,3.6,4.4,1.75,3.6,5,1.8,3.6,4.5,1.85,3.4,4.5,1.9,3.54,4.74,1.83,3.6,4.5,1.85,3.6,4.75,48,1.9,1.84,3.6,3.48,5.05,4.62,41,2.31,2.21,1.72,1.66,22,-0.75,2.19,2.11,1.82,1.77,1.85,3.6,4.89
SP1,16/10/16,Sp Gijon,Valencia,1,2,A,1,1,D,10,7,2,3,21,11,4,4,5,1,0,0,3.6,3.4,2.1,3.6,3.4,2.1,3.3,3.35,2.2,3.4,3.4,2.05,3.58,3.61,2.16,3.5,3.3,2.2,3.5,3.6,2.05,47,3.66,3.47,3.61,3.41,2.22,2.13,40,1.9,1.82,2.08,1.99,23,0.25,2.11,2.04,1.86,1.82,3.55,3.42,2.24
SP1,16/10/16,Villarreal,Celta,5,0,H,3,0,H,11,4,5,1,19,12,3,5,1,4,0,1,1.85,3.4,4.75,1.85,3.5,4.5,1.9,3.5,4.1,1.83,3.3,4.5,1.87,3.56,4.91,1.91,3.4,4.5,1.85,3.5,4.5,48,1.93,1.87,3.56,3.43,4.91,4.44,41,2.28,2.16,1.75,1.7,22,-0.75,2.21,2.13,1.8,1.74,2.1,3.43,3.97
SP1,17/10/16,Eibar,Osasuna,2,3,A,2,2,D,13,8,5,4,15,12,5,0,1,2,0,0,1.7,3.6,5,1.75,3.6,5,1.75,3.6,4.8,1.75,3.5,4.75,1.78,3.75,5.2,1.75,3.6,5,1.75,3.7,4.8,47,1.82,1.75,3.75,3.6,5.2,4.89,39,2.11,2.05,1.85,1.77,24,-1,2.5,2.41,1.62,1.59,1.63,4.1,6.22
SP1,21/10/16,Osasuna,Betis,1,2,A,0,1,A,13,12,5,6,20,12,6,4,3,2,1,0,2.4,3.2,3.1,2.6,3.25,3,2.5,3.3,2.85,2.5,3.1,2.9,2.59,3.32,3,2.6,3.25,2.88,2.55,3.3,3,55,2.68,2.55,3.4,3.18,3.1,2.92,48,2.23,2.13,1.78,1.7,31,0,1.85,1.79,2.15,2.06,2.66,3.25,2.97
SP1,22/10/16,Espanol,Eibar,3,3,D,0,3,A,11,8,5,3,11,12,7,6,1,6,1,0,2.05,3.4,3.8,2,3.3,4,2,3.4,3.8,2.05,3.2,3.8,2.09,3.37,4.08,2.1,3.3,3.8,2.1,3.4,3.9,54,2.12,2.06,3.43,3.3,4.08,3.84,47,2.36,2.22,1.73,1.64,31,-0.5,2.12,2.05,1.85,1.81,2.22,3.29,3.78
SP1,22/10/16,Granada,Sp Gijon,0,0,D,0,0,D,12,3,1,3,10,12,3,3,4,1,0,0,2.1,3.4,3.6,2.1,3.3,3.7,2.3,3.2,3.25,2.1,3.3,3.5,2.16,3.46,3.73,2.15,3.4,3.5,2.1,3.5,3.7,53,2.3,2.14,3.52,3.33,3.73,3.52,46,2.13,2.05,1.81,1.75,29,-0.25,1.9,1.83,2.09,2.03,2.34,3.36,3.4
SP1,22/10/16,Sociedad,Alaves,3,0,H,1,0,H,16,10,5,3,17,20,4,2,3,5,0,0,1.67,3.75,5.5,1.62,3.8,5.75,1.75,3.6,4.8,1.67,3.6,5.5,1.7,3.81,5.9,1.7,3.5,6,1.67,3.8,6,54,1.75,1.67,3.81,3.67,6.05,5.52,46,2.25,2.14,1.77,1.69,32,-1,2.34,2.23,1.72,1.68,1.66,3.98,6.05
SP1,22/10/16,Valencia,Barcelona,2,3,A,0,1,A,7,15,4,8,15,13,3,1,5,4,0,0,7,5.25,1.4,7.25,5.25,1.42,7,4.5,1.45,6,4.75,1.44,7.67,5.24,1.43,7,5,1.44,7,5.25,1.44,54,7.67,6.79,5.26,4.9,1.51,1.43,38,1.44,1.4,2.85,2.8,32,1,2.4,2.27,1.7,1.66,8.3,5.65,1.38
SP1,23/10/16,Celta,La Coruna,4,1,H,1,1,D,9,11,7,1,17,15,5,4,3,5,0,0,1.7,3.6,5.5,1.75,3.6,5,1.7,3.7,5,1.75,3.5,5,1.79,3.7,5.25,1.75,3.5,5.5,1.75,3.75,5.2,54,1.79,1.75,3.75,3.58,5.5,5,46,2.2,2.07,1.8,1.74,30,-1,2.51,2.38,1.65,1.6,1.8,3.78,5.01
SP1,23/10/16,Malaga,Leganes,4,0,H,2,0,H,24,14,8,5,12,15,5,8,1,3,0,0,1.85,3.3,4.75,1.83,3.4,4.75,1.8,3.6,4.5,1.83,3.25,4.75,1.87,3.41,5.19,1.91,3.3,4.8,1.85,3.4,4.6,54,1.95,1.87,3.6,3.28,5.19,4.71,44,2.6,2.41,1.6,1.55,27,-0.75,2.23,2.15,1.8,1.73,2.17,3.24,3.99
SP1,23/10/16,Real Madrid,Ath Bilbao,2,1,H,1,1,D,24,10,8,3,10,17,6,4,2,3,0,0,1.2,7,13,1.26,6.5,12,1.25,6,11,1.22,6.5,12,1.25,7.03,12.68,1.25,6.5,12,1.22,7,12,54,1.29,1.24,7.4,6.47,13.5,11.59,38,1.37,1.32,3.6,3.28,31,-2,2.05,1.99,1.92,1.85,1.2,7.87,15.39
SP1,23/10/16,Sevilla,Ath Madrid,1,0,H,0,0,D,12,9,5,3,15,11,4,5,4,2,0,1,4,3.5,1.95,4.1,3.5,2,3.5,3.4,2.1,3.8,3.4,1.95,4.19,3.51,2.01,4,3.5,2,4.1,3.5,2,54,4.19,3.92,3.55,3.41,2.1,1.99,45,2.12,2.03,1.85,1.76,27,0.75,1.68,1.65,2.36,2.28,4.07,3.62,2.01
SP1,23/10/16,Villarreal,Las Palmas,2,1,H,0,1,A,14,8,4,4,16,12,2,1,2,3,0,0,1.67,3.8,5.25,1.7,3.6,5.5,1.6,3.9,5.7,1.67,3.6,5.25,1.68,3.92,5.8,1.7,3.75,5.5,1.67,3.9,5.2,54,1.76,1.69,3.95,3.75,5.8,5.19,46,1.92,1.84,2.02,1.94,31,-1,2.3,2.22,1.72,1.68,1.68,4.04,5.65
SP1,28/10/16,Leganes,Sociedad,0,2,A,0,1,A,7,9,4,5,19,15,1,4,5,2,0,0,2.63,3.1,2.88,2.65,3.1,2.85,2.7,3.2,2.7,2.5,3,2.9,2.63,3.16,3.09,2.62,3.1,3,2.6,3.2,3,55,2.77,2.6,3.21,3.1,3.09,2.93,47,2.38,2.28,1.67,1.61,31,0.25,1.64,1.57,2.61,2.47,2.83,3.16,2.85
SP1,29/10/16,Alaves,Real Madrid,1,4,A,1,2,A,8,15,3,5,15,6,4,3,5,1,0,0,13,6.5,1.22,13,7,1.2,13.5,6.2,1.22,12,6,1.25,14,6.8,1.25,13,6,1.25,13,6.5,1.25,56,15,12.6,7.2,6.34,1.29,1.23,40,1.46,1.42,3.1,2.78,32,2,1.85,1.8,2.13,2.05,16.51,7.75,1.2
SP1,29/10/16,Ath Madrid,Malaga,4,2,H,3,1,H,16,6,7,3,10,10,6,2,2,4,1,1,1.22,6,15,1.22,6.75,12,1.25,6,11,1.22,5.5,15,1.24,6.31,17.71,1.22,6,17,1.25,6,17,56,1.3,1.23,6.75,5.78,19,15.6,48,1.93,1.86,2.01,1.92,33,-2,2.49,2.39,1.65,1.6,1.25,6.4,15.25
SP1,29/10/16,Barcelona,Granada,1,0,H,0,0,D,15,1,5,0,7,17,8,1,1,4,0,0,1.05,17,34,1.04,16,36,1.05,13,36,1.05,19,51,1.06,19,45,1.05,17,34,1.06,17,34,56,1.11,1.05,20.94,15.65,61,40.93,39,1.17,1.13,6.75,5.65,25,-3.5,2.04,1.92,2,1.94,1.05,22.05,42.5
SP1,29/10/16,Sp Gijon,Sevilla,1,1,D,1,1,D,9,20,5,6,17,9,3,4,6,2,0,0,3.8,3.6,1.95,4.2,3.5,1.91,4.1,3.5,1.9,4,3.5,1.85,4.33,3.73,1.92,4,3.6,1.95,4.2,3.75,1.91,56,4.33,4.04,3.75,3.54,2.02,1.92,48,2.04,1.94,1.96,1.85,32,0.5,2.01,1.94,1.96,1.91,4.63,3.82,1.85
SP1,30/10/16,Ath Bilbao,Osasuna,1,1,D,1,1,D,18,7,4,3,10,11,9,2,2,1,0,0,1.36,5,8.5,1.36,4.75,9.25,1.45,4.5,7,1.36,4.5,8.5,1.41,5.01,9.16,1.4,4.5,10,1.36,4.8,9,56,1.45,1.38,5.15,4.7,10.27,8.85,47,1.85,1.77,2.12,2.03,32,-1.5,2.2,2.12,1.79,1.75,1.45,4.59,8.9
SP1,30/10/16,Betis,Espanol,0,1,A,0,0,D,13,10,5,5,15,15,8,3,3,3,0,0,2.25,3.25,3.4,2.2,3.25,3.5,2.1,3.4,3.5,2.2,3.25,3.3,2.28,3.38,3.51,2.25,3.3,3.4,2.2,3.4,3.3,55,2.37,2.23,3.4,3.26,3.53,3.37,48,2.22,2.12,1.78,1.7,30,-0.25,1.95,1.91,2,1.94,2.22,3.41,3.62
SP1,30/10/16,Eibar,Villarreal,2,1,H,0,1,A,13,6,9,1,16,16,3,7,2,3,0,0,3,3.2,2.5,3.1,3.2,2.4,3.15,3.1,2.4,3,3.1,2.4,3.19,3.18,2.55,3.2,3.1,2.5,3.1,3.2,2.55,55,3.2,3.04,3.22,3.14,2.61,2.48,43,2.42,2.3,1.7,1.6,30,0.25,1.81,1.78,2.15,2.1,3.13,3.13,2.63
SP1,30/10/16,Las Palmas,Celta,3,3,D,0,3,A,17,9,8,6,13,22,8,1,2,6,0,1,2.3,3.3,3.2,2.3,3.4,3.1,2.4,3.3,2.95,2.3,3.3,3,2.42,3.4,3.21,2.38,3.5,3,2.38,3.4,3,56,2.49,2.35,3.5,3.34,3.29,3.07,48,1.92,1.83,2.05,1.96,30,-0.25,2.08,2.01,1.89,1.85,2.35,3.61,3.14
SP1,31/10/16,La Coruna,Valencia,1,1,D,1,0,H,16,10,4,3,14,21,5,6,1,5,0,0,2.88,3.2,2.55,2.9,3.25,2.5,2.85,3.3,2.5,2.88,3.25,2.5,2.88,3.37,2.66,2.9,3.2,2.6,2.8,3.4,2.5,53,3,2.85,3.4,3.25,2.66,2.55,47,2.1,2.03,1.83,1.77,29,0,2.12,2,1.89,1.84,3.03,3.41,2.52
SP1,04/11/16,Malaga,Sp Gijon,3,2,H,1,1,D,22,7,7,4,12,20,9,2,5,4,0,1,1.73,3.6,5.25,1.72,3.6,5.25,1.75,3.6,4.8,1.67,3.6,5.25,1.71,3.79,5.83,1.75,3.6,4.75,1.7,3.75,5.75,49,1.77,1.71,3.8,3.64,5.83,5.38,45,2.25,2.14,1.8,1.7,31,-0.75,1.97,1.92,2.01,1.94,1.72,3.89,5.49
SP1,05/11/16,Granada,La Coruna,1,1,D,0,0,D,14,13,6,5,11,7,7,6,1,2,0,0,2.6,3.2,2.8,2.55,3.2,2.9,2.6,3.25,2.75,2.62,3,2.8,2.74,3.16,2.95,2.5,3.2,2.9,2.7,3.2,2.88,50,2.75,2.64,3.25,3.11,3,2.86,46,2.45,2.34,1.66,1.59,30,0,1.9,1.85,2.05,1.99,2.75,3.21,2.89
SP1,05/11/16,Las Palmas,Eibar,1,0,H,0,0,D,16,13,6,5,10,20,7,4,1,4,0,0,1.91,3.5,4,1.95,3.5,3.9,2.05,3.3,3.8,1.91,3.5,3.8,1.99,3.71,4.04,2,3.4,3.75,2,3.7,3.9,50,2.05,1.96,3.71,3.55,4.2,3.88,47,1.85,1.74,2.2,2.08,28,-0.75,2.3,2.22,1.74,1.69,2.01,3.77,3.87
SP1,05/11/16,Osasuna,Alaves,0,1,A,0,0,D,10,12,4,3,18,10,3,4,5,2,0,0,2.25,3.2,3.4,2.25,3.25,3.4,2.2,3.2,3.45,2.25,3.1,3.4,2.32,3.25,3.54,2.4,3.1,3.1,2.3,3.25,3.5,50,2.35,2.26,3.3,3.17,3.55,3.42,45,2.4,2.29,1.67,1.62,29,-0.25,1.98,1.92,1.98,1.93,2.63,3.08,3.17
SP1,05/11/16,Sociedad,Ath Madrid,2,0,H,0,0,D,12,9,3,2,18,20,6,6,2,4,0,0,5.75,3.6,1.67,5,3.6,1.75,5,3.7,1.7,5,3.6,1.7,5.37,3.82,1.75,4.6,3.5,1.8,5.5,3.6,1.75,49,5.75,5.13,3.85,3.65,1.82,1.72,44,2.14,2.08,1.85,1.74,32,1,1.67,1.63,2.42,2.32,6.03,3.96,1.66
SP1,06/11/16,Celta,Valencia,2,1,H,1,1,D,7,13,4,4,19,15,4,3,6,1,0,0,2.25,3.4,3.2,2.25,3.4,3.2,2.3,3.3,3.15,2.25,3.5,3,2.28,3.68,3.23,2.25,3.4,3.1,2.3,3.6,3.13,50,2.32,2.26,3.68,3.45,3.3,3.14,45,1.8,1.73,2.2,2.08,29,-0.25,2.01,1.96,1.95,1.89,2.37,3.55,3.16
SP1,06/11/16,Espanol,Ath Bilbao,0,0,D,0,0,D,6,4,3,0,13,11,5,3,1,2,0,0,3,3.2,2.5,2.85,3.3,2.5,2.85,3.3,2.5,2.8,3.2,2.5,2.92,3.34,2.65,3.2,3.3,2.25,2.88,3.4,2.6,50,3,2.88,3.4,3.21,2.7,2.56,45,2.3,2.19,1.72,1.67,30,0,2.08,2.01,1.88,1.83,2.64,3.24,3.01
SP1,06/11/16,Real Madrid,Leganes,3,0,H,2,0,H,17,7,7,3,7,20,2,2,3,5,0,0,1.07,13,23,1.07,12.5,31,1.05,13,36,1.08,12,29,1.1,15,22.5,1.06,12,29,1.09,13,29,50,1.1,1.08,17,12.49,36,27.03,36,1.22,1.18,5.25,4.6,31,-3,2.08,1.99,1.91,1.86,1.1,13.9,26.05
SP1,06/11/16,Sevilla,Barcelona,1,2,A,1,1,D,15,14,4,7,18,12,3,5,4,6,0,0,5.25,4.2,1.62,5,4.33,1.62,5.3,3.8,1.65,4.5,4.33,1.62,4.84,4.51,1.69,5.5,4.4,1.53,4.8,4.5,1.62,50,5.5,4.89,4.51,4.31,1.75,1.64,37,1.45,1.39,3.1,2.9,33,1,1.88,1.84,2.08,2.01,4.69,4.45,1.72
SP1,06/11/16,Villarreal,Betis,2,0,H,1,0,H,15,7,7,3,16,12,10,1,0,2,0,0,1.5,4.2,7,1.53,4,7,1.5,4.2,6.5,1.5,4,6.5,1.53,4.31,7.36,1.55,4,6,1.5,4.2,7,50,1.64,1.52,4.38,4.08,7.5,6.89,46,2.02,1.95,1.92,1.85,33,-1,1.94,1.87,2.04,1.98,1.65,3.97,6.18
SP1,18/11/16,Betis,Las Palmas,2,0,H,2,0,H,10,9,3,3,22,10,4,5,0,1,0,0,2.35,3.4,3.1,2.35,3.3,3.1,2.4,3.3,2.95,2.3,3.3,3,2.37,3.48,3.21,2.4,3.3,3.1,2.3,3.4,3.13,51,2.47,2.36,3.5,3.37,3.21,3.06,47,1.95,1.87,2.01,1.92,29,-0.5,2.4,2.33,1.67,1.63,2.37,3.53,3.17
SP1,19/11/16,Ath Madrid,Real Madrid,0,3,A,0,1,A,16,12,5,7,21,14,8,6,4,2,0,0,2.5,3.3,2.9,2.5,3.3,2.85,2.5,3.3,2.85,2.4,3.3,2.9,2.44,3.44,3.12,2.5,3.2,3.1,2.5,3.4,3,52,2.6,2.46,3.44,3.3,3.15,2.97,48,2.02,1.94,1.95,1.85,29,-0.25,2.14,2.07,1.84,1.8,2.39,3.38,3.27
SP1,19/11/16,Barcelona,Malaga,0,0,D,0,0,D,28,4,8,1,13,12,14,1,0,2,0,2,1.13,9,21,1.12,9,21,1.12,9,20,1.13,9,21,1.13,10.68,23.62,1.14,8.5,21,1.13,10,21,52,1.16,1.13,10.68,9.08,25,20.74,42,1.32,1.28,3.85,3.54,33,-2.5,2.08,2,1.91,1.86,1.21,7.65,16.5
SP1,19/11/16,Eibar,Celta,1,0,H,1,0,H,12,6,5,2,11,13,7,0,2,5,0,2,2.38,3.25,3.1,2.3,3.3,3.2,2.5,3.3,2.85,2.25,3.2,3.25,2.35,3.32,3.41,2.3,3.3,3.3,2.38,3.4,3.25,51,2.5,2.32,3.44,3.27,3.41,3.21,48,2.03,1.95,1.91,1.84,29,-0.25,2.03,1.98,1.93,1.88,2.15,3.38,3.86
SP1,19/11/16,La Coruna,Sevilla,2,3,A,2,1,H,4,20,3,7,15,12,3,14,3,2,0,0,3.3,3.4,2.2,3.4,3.3,2.2,3.3,3.35,2.2,3.3,3.3,2.2,3.4,3.44,2.3,3.3,3.4,2.25,3.3,3.4,2.3,52,3.45,3.28,3.5,3.35,2.35,2.24,48,2.05,1.98,1.9,1.82,31,0.25,1.98,1.93,1.97,1.93,3.38,3.47,2.3
SP1,20/11/16,Alaves,Espanol,0,1,A,0,0,D,10,10,4,3,20,14,2,5,5,2,0,0,2.5,3.1,3.1,2.45,3.1,3.1,2.5,3.1,3,2.4,3,3,2.54,3.21,3.17,2.5,3.2,3.1,2.55,3.2,3.1,52,2.65,2.49,3.21,3.12,3.17,3.06,47,2.5,2.37,1.61,1.57,29,-0.25,2.2,2.13,1.8,1.76,2.77,3.07,3
SP1,20/11/16,Ath Bilbao,Villarreal,1,0,H,0,0,D,12,6,5,2,13,17,6,5,0,2,0,0,2.15,3.3,3.5,2.1,3.25,3.7,2,3.4,3.8,2.1,3.1,3.6,2.15,3.35,3.89,2.2,3.3,3.5,2.1,3.3,3.7,52,2.2,2.14,3.4,3.24,3.95,3.65,47,2.45,2.34,1.65,1.59,29,-0.25,1.86,1.83,2.1,2.04,2.2,3.23,3.9
SP1,20/11/16,Sp Gijon,Sociedad,1,3,A,1,1,D,4,20,1,9,17,9,3,5,2,1,0,0,3.4,3.3,2.2,3.3,3.3,2.25,3.35,3.3,2.2,3.4,3.2,2.2,3.5,3.33,2.31,3.3,3.3,2.3,3.4,3.3,2.2,51,3.59,3.36,3.35,3.25,2.36,2.25,47,2.35,2.21,1.72,1.65,29,0.25,1.99,1.94,1.98,1.92,3.73,3.49,2.15
SP1,20/11/16,Valencia,Granada,1,1,D,0,1,A,14,9,7,5,7,18,11,2,1,5,0,0,1.33,5.5,8.5,1.34,5.25,9,1.4,4.8,7.5,1.33,5,9.5,1.35,5.42,10.67,1.36,5,9,1.33,5.5,9.5,52,1.4,1.34,5.5,5.11,10.67,9.24,43,1.66,1.59,2.42,2.31,32,-1.5,2.05,1.98,1.92,1.87,1.4,5.18,9.02
SP1,21/11/16,Leganes,Osasuna,2,0,H,1,0,H,15,5,5,2,13,17,3,2,2,3,0,0,1.85,3.5,4.5,1.87,3.4,4.5,1.9,3.5,4.1,1.85,3.25,4.5,1.9,3.44,4.9,1.91,3.4,4.5,1.83,3.5,4.6,51,1.96,1.88,3.5,3.4,4.9,4.47,48,2.41,2.27,1.68,1.62,27,-0.75,2.23,2.15,1.77,1.73,1.91,3.48,4.82
SP1,25/11/16,Eibar,Betis,3,1,H,2,0,H,16,7,9,2,11,7,5,1,0,1,0,1,1.95,3.4,4.2,1.95,3.4,4.1,2,3.4,3.8,1.95,3.25,4.2,2,3.41,4.4,2,3.4,4,2,3.4,4.2,49,2,1.97,3.5,3.38,4.4,4.13,45,2.21,2.12,1.8,1.71,26,-0.5,2,1.95,1.95,1.9,2.15,3.42,3.82
SP1,26/11/16,Espanol,Leganes,3,0,H,0,0,D,8,8,4,3,19,16,3,4,1,2,0,0,1.85,3.4,4.75,1.83,3.4,4.75,1.85,3.5,4.3,1.8,3.3,5,1.83,3.47,5.34,1.85,3.3,5,1.87,3.4,5,49,1.92,1.83,3.5,3.36,5.34,4.87,41,2.6,2.44,1.6,1.54,25,-0.5,1.87,1.83,2.12,2.02,2,3.27,4.67
SP1,26/11/16,Malaga,La Coruna,4,3,H,2,1,H,10,24,4,8,15,13,2,5,3,1,0,0,2,3.25,4.2,2,3.3,4.1,1.85,3.5,4.3,1.95,3.25,4,2.02,3.46,4.27,2.05,3.3,4,2.05,3.4,4,49,2.08,2.01,3.5,3.33,4.3,4,45,2.35,2.23,1.7,1.64,26,-0.25,1.76,1.72,2.27,2.16,1.91,3.79,4.3
SP1,26/11/16,Real Madrid,Sp Gijon,2,1,H,2,1,H,19,9,7,3,19,18,5,6,1,3,0,0,1.06,13,34,1.07,15.5,21,1.05,13,36,1.07,13,34,1.08,15,32.5,1.08,13,34,1.05,15,46,48,1.1,1.07,16,13.2,46,29.79,35,1.18,1.15,5.75,5.27,27,-3.25,2.05,1.99,1.91,1.87,1.1,13.75,24.75
SP1,26/11/16,Sevilla,Valencia,2,1,H,0,0,D,6,10,1,4,19,14,3,6,0,1,0,0,1.73,3.75,5,1.75,3.75,4.75,1.75,3.6,4.8,1.73,3.8,4.5,1.78,4.03,4.75,1.75,3.75,5,1.75,4,4.6,49,1.82,1.75,4.15,3.88,5,4.59,41,1.65,1.6,2.4,2.3,29,-1,2.35,2.26,1.7,1.66,1.77,4.07,4.78
SP1,27/11/16,Celta,Granada,3,1,H,2,0,H,16,7,6,1,4,15,5,0,0,3,0,0,1.53,4,7,1.53,4.1,6.5,1.5,4.2,6.5,1.55,4,6,1.58,4.31,6.51,1.57,4,6.5,1.55,4.2,6,49,1.62,1.55,4.4,4.11,7,6.14,45,1.87,1.78,2.12,2.02,30,-1,2.02,1.95,1.96,1.89,1.64,3.89,6.49
SP1,27/11/16,Osasuna,Ath Madrid,0,3,A,0,2,A,11,7,1,5,9,6,7,4,2,2,0,0,11,5.25,1.3,10,5.5,1.3,8,5.3,1.35,11,5,1.3,11.58,5.44,1.32,11,5,1.33,13,5.4,1.3,49,13.5,11.4,5.75,5.23,1.36,1.3,46,1.95,1.88,2.02,1.91,29,1.5,1.98,1.92,1.98,1.92,11.85,5.3,1.34
SP1,27/11/16,Sociedad,Barcelona,1,1,D,0,0,D,17,10,6,2,16,11,8,6,2,4,0,0,7,4.75,1.44,6.25,4.4,1.5,5.2,4.2,1.6,6,4.5,1.5,7.02,4.83,1.49,6.5,4.5,1.5,6.5,4.8,1.45,49,7.02,6.36,4.85,4.63,1.6,1.48,37,1.55,1.51,2.62,2.51,29,1,2.21,2.13,1.8,1.74,6.85,5.04,1.48
SP1,27/11/16,Villarreal,Alaves,0,2,A,0,2,A,23,10,10,7,11,19,12,1,2,3,0,0,1.5,4,7.5,1.53,3.9,7,1.5,4.2,6.5,1.5,3.8,8,1.52,4.1,8.49,1.53,3.75,8,1.5,4.1,8,49,1.58,1.51,4.2,3.94,8.49,7.59,45,2.25,2.18,1.74,1.67,29,-1,1.93,1.89,2.01,1.96,1.56,3.95,7.83
SP1,28/11/16,Las Palmas,Ath Bilbao,3,1,H,1,0,H,10,10,4,3,19,21,5,3,3,4,0,1,2.5,3.4,2.8,2.55,3.4,2.75,2.4,3.3,2.95,2.62,3.1,2.75,2.74,3.29,2.86,2.62,3.3,2.8,2.6,3.4,2.7,47,2.74,2.6,3.41,3.28,2.95,2.77,46,2.03,1.95,1.9,1.84,26,0,1.92,1.87,2.02,1.97,2.96,3.31,2.63
SP1,03/12/16,Ath Madrid,Espanol,0,0,D,0,0,D,11,5,3,3,10,19,9,2,2,2,0,0,1.22,6,15,1.25,6,12.5,1.3,5.5,9.5,1.22,5.75,15,1.24,6.33,17.25,1.25,5.5,17,1.22,6.25,17,47,1.3,1.23,6.5,5.97,18.5,14.93,41,1.85,1.78,2.15,2.03,28,-2,2.41,2.3,1.67,1.64,1.27,5.92,15
SP1,03/12/16,Barcelona,Real Madrid,1,1,D,0,0,D,11,14,2,5,19,16,5,7,4,2,0,0,1.85,4.2,4.2,1.87,4.1,4,1.85,3.8,4,1.85,4,4,1.86,4.18,4.09,1.85,4,4,1.85,4.2,4,47,1.93,1.85,4.25,4.02,4.2,3.92,32,1.45,1.4,3,2.86,26,-1,2.5,2.41,1.62,1.59,1.72,4.48,4.64
SP1,03/12/16,Granada,Sevilla,2,1,H,1,0,H,11,17,6,6,18,16,4,8,5,2,0,0,4.75,3.5,1.8,4.5,3.7,1.78,4.3,3.5,1.85,4.5,3.6,1.75,4.98,3.85,1.79,4.8,3.5,1.83,4.75,3.8,1.8,47,4.98,4.59,3.85,3.65,1.87,1.79,44,1.92,1.85,2.03,1.95,29,1,1.62,1.58,2.53,2.41,5.46,4.08,1.69
SP1,03/12/16,Leganes,Villarreal,0,0,D,0,0,D,11,9,4,3,21,16,2,4,6,3,0,0,3.8,2.9,2.25,3.5,3.2,2.2,2.95,3.3,2.4,3.4,3,2.25,3.6,3.22,2.31,3.4,3.2,2.3,3.5,3.2,2.3,47,3.8,3.47,3.3,3.12,2.4,2.27,38,2.6,2.46,1.57,1.54,25,0.25,1.96,1.91,2.03,1.94,3.21,3.01,2.66
SP1,04/12/16,Alaves,Las Palmas,1,1,D,1,0,H,9,10,2,3,15,11,3,5,3,3,0,0,2.5,3.2,3,2.5,3.25,2.9,2.4,3.2,3.05,2.4,3.1,3,2.54,3.22,3.16,2.5,3.2,3.1,2.45,3.25,3,46,2.55,2.48,3.33,3.19,3.16,2.99,42,2.2,2.08,1.79,1.74,25,-0.25,2.16,2.09,1.83,1.78,2.33,3.48,3.29
SP1,04/12/16,Ath Bilbao,Eibar,3,1,H,1,0,H,12,10,5,4,9,16,2,2,1,4,0,0,1.85,3.4,4.75,1.85,3.4,4.75,1.75,3.7,4.7,1.85,3.3,4.5,1.93,3.46,4.71,1.91,3.3,4.8,1.91,3.5,4.5,45,1.94,1.88,3.7,3.4,4.8,4.47,41,2.16,2.07,1.85,1.75,24,-0.75,2.25,2.17,1.76,1.72,1.92,3.36,4.98
SP1,04/12/16,Betis,Celta,3,3,D,1,1,D,16,13,5,6,22,14,4,3,4,1,1,0,2.38,3.25,3.1,2.35,3.3,3.1,2.4,3.3,2.95,2.38,3.2,3,2.49,3.31,3.16,2.4,3.3,3.1,2.45,3.3,3.1,47,2.58,2.41,3.4,3.27,3.2,3.04,43,2.1,2,1.87,1.81,25,-0.25,2.13,2.05,1.85,1.81,2.8,3.14,2.91
SP1,04/12/16,Sp Gijon,Osasuna,3,1,H,1,0,H,9,15,5,2,17,13,2,5,3,1,0,0,2,3.3,4,2.05,3.3,3.8,2.15,3.2,3.6,2,3.2,4,2.08,3.34,4.16,2.05,3.3,4,2,3.4,3.9,45,2.15,2.03,3.41,3.33,4.3,3.89,41,2.25,2.15,1.74,1.7,24,-0.75,2.44,2.36,1.67,1.61,1.86,3.59,4.88
SP1,04/12/16,Valencia,Malaga,2,2,D,2,1,H,8,19,3,6,16,7,2,13,5,1,0,0,1.75,3.6,5,1.78,3.75,4.5,1.9,3.5,4.1,1.73,3.75,4.75,1.75,4.01,5.06,1.8,3.75,4.5,1.73,3.9,4.6,46,1.9,1.76,4.01,3.77,5.06,4.67,43,1.9,1.82,2.07,1.99,28,-1,2.45,2.34,1.66,1.62,1.63,4.3,5.74
SP1,05/12/16,La Coruna,Sociedad,5,1,H,3,0,H,15,14,10,3,15,10,8,6,1,4,0,0,3.1,3.1,2.5,2.95,3.2,2.5,2.85,3.3,2.5,2.9,3.1,2.5,3.11,3.22,2.58,3,3.25,2.5,2.9,3.25,2.5,45,3.11,2.97,3.3,3.17,2.6,2.51,43,2.28,2.2,1.72,1.66,23,0.25,1.78,1.74,2.21,2.14,3.25,3.38,2.4
SP1,09/12/16,Malaga,Granada,1,1,D,1,0,H,16,8,7,2,16,14,6,2,3,5,0,0,1.6,4,5.75,1.65,4,5.25,1.7,3.7,5,1.62,3.8,5.5,1.65,4.18,5.67,1.65,4,5.5,1.65,4,5.75,51,1.7,1.64,4.2,3.98,5.85,5.46,48,2.02,1.79,2.15,2.02,28,-1,2.28,2.11,1.83,1.76,1.67,4.13,5.64
SP1,10/12/16,Las Palmas,Leganes,1,1,D,1,0,H,5,11,1,6,17,18,6,4,3,3,0,0,1.8,3.5,4.75,1.75,3.8,4.6,1.8,3.6,4.5,1.75,3.5,4.75,1.82,3.76,4.89,1.8,3.6,4.8,1.8,3.7,4.8,50,1.85,1.79,3.81,3.62,5.1,4.7,47,2.06,1.99,1.88,1.81,24,-0.75,2.11,2.02,1.9,1.84,1.83,3.64,4.99
SP1,10/12/16,Osasuna,Barcelona,0,3,A,0,0,D,4,17,1,6,18,6,2,5,3,0,0,0,15,7.5,1.18,13,7.25,1.2,11,6,1.25,15,7.5,1.18,17.1,7.85,1.2,17,7,1.2,17,7.5,1.18,49,18.5,15.39,8.52,7.26,1.25,1.19,39,1.4,1.36,3.32,3.06,26,2,2.12,2.04,1.92,1.82,25.65,10.05,1.13
SP1,10/12/16,Real Madrid,La Coruna,3,2,H,0,0,D,17,4,5,2,16,17,10,3,3,4,0,0,1.17,8,15,1.16,8.5,15,,,,1.18,7,15,1.19,8.25,16.85,1.2,7,15,1.18,8,15,51,1.21,1.17,9.35,7.77,27,16.27,38,1.38,1.33,3.9,3.28,23,-2,1.9,1.81,2.35,2.06,1.24,6.86,14.85
SP1,10/12/16,Sociedad,Valencia,3,2,H,2,1,H,14,9,6,3,17,20,8,4,4,4,0,1,1.91,3.75,3.8,1.91,3.7,3.9,2,3.4,3.8,1.91,3.6,3.8,1.96,3.81,4.03,1.95,3.6,4,1.95,3.8,3.9,50,2.01,1.94,3.82,3.66,4.15,3.88,46,1.89,1.75,2.15,2.05,26,-0.5,2.01,1.93,2.01,1.95,1.93,3.81,4.18
SP1,11/12/16,Betis,Ath Bilbao,1,0,H,1,0,H,6,14,1,4,14,12,3,7,3,2,0,0,3.1,3.25,2.38,3.2,3.2,2.35,3.15,3.3,2.3,3,3.2,2.38,3.15,3.35,2.47,3.2,3.2,2.4,3.2,3.25,2.3,49,3.35,3.12,3.35,3.23,2.5,2.39,45,2.3,2.18,1.75,1.68,23,0.25,1.86,1.82,2.13,2.05,3.53,3.22,2.35
SP1,11/12/16,Celta,Sevilla,0,3,A,0,0,D,14,14,6,5,13,13,4,6,3,3,0,0,2.75,3.3,2.63,2.7,3.3,2.65,2.85,3.3,2.5,2.62,3.4,2.6,2.74,3.55,2.68,2.7,3.3,2.7,2.7,3.5,2.7,49,2.85,2.71,3.55,3.36,2.7,2.62,45,1.83,1.76,2.12,2.04,24,0,1.99,1.95,1.97,1.9,2.76,3.51,2.69
SP1,11/12/16,Eibar,Alaves,0,0,D,0,0,D,8,3,1,3,14,7,7,2,1,1,0,0,1.83,3.6,4.5,1.87,3.4,4.6,2,3.4,3.8,1.83,3.3,4.75,1.86,3.53,5.01,1.85,3.4,4.8,1.85,3.6,4.8,49,2,1.85,3.6,3.43,5.01,4.63,44,2.38,2.29,1.67,1.61,24,-0.25,1.66,1.59,2.51,2.41,1.98,3.47,4.41
SP1,11/12/16,Espanol,Sp Gijon,2,1,H,0,0,D,12,13,6,5,13,10,4,3,1,2,0,0,1.73,3.75,5,1.72,3.7,5,1.75,3.6,4.8,1.7,3.5,5.25,1.73,3.7,5.8,1.75,3.5,5.5,1.7,3.7,5.25,48,1.77,1.72,3.8,3.6,5.8,5.27,44,2.3,2.19,1.74,1.67,22,-0.75,1.99,1.94,1.96,1.92,1.79,3.55,5.6
SP1,12/12/16,Villarreal,Ath Madrid,3,0,H,2,0,H,9,13,5,3,13,13,2,7,3,3,0,0,4.5,3.5,1.85,4.25,3.5,1.9,3.8,3.4,2,4.33,3.3,1.91,4.54,3.44,1.96,4.5,3.3,1.95,4.3,3.4,1.93,48,4.86,4.32,3.5,3.36,2,1.92,41,2.5,2.36,2.03,1.58,22,0.5,2.01,1.93,1.98,1.93,4.56,3.27,2.02
SP1,16/12/16,Alaves,Betis,1,0,H,0,0,D,10,6,2,3,20,6,6,4,6,1,0,0,2.3,3.1,3.4,2.35,3.1,3.4,2.2,3.35,3.3,2.3,3,3.3,2.42,3.12,3.5,2.3,3.1,3.5,2.4,3.13,3.3,50,2.5,2.36,3.35,3.1,3.75,3.36,41,2.54,2.41,1.61,1.56,27,-0.25,2.05,2,1.9,1.86,2.44,3.04,3.56
SP1,17/12/16,Ath Madrid,Las Palmas,1,0,H,0,0,D,16,11,3,3,15,11,8,5,2,1,0,0,1.29,5.5,9.5,1.3,5.5,10.5,1.3,5.5,9.5,1.3,5.25,11,1.31,5.81,11.66,1.3,5.5,11,1.3,5.75,12,49,1.35,1.3,5.95,5.46,12.88,10.89,42,1.67,1.61,2.38,2.29,29,-1.5,1.92,1.87,2.04,1.98,1.25,6.6,14.9
SP1,17/12/16,Granada,Sociedad,0,2,A,0,0,D,10,18,4,6,9,11,5,9,0,1,0,0,3.75,3.4,2,3.7,3.6,2,3.5,3.4,2.1,3.5,3.4,2.05,3.76,3.56,2.11,3.8,3.5,2.05,3.6,3.6,2.1,50,3.85,3.67,3.6,3.44,2.18,2.07,44,2.05,1.96,1.91,1.83,23,0.5,1.84,1.8,2.13,2.07,3.95,3.51,2.08
SP1,17/12/16,Sevilla,Malaga,4,1,H,4,0,H,9,16,5,3,17,12,3,6,2,3,1,0,1.5,4.1,6.5,1.53,4.2,6.25,1.55,4,6.2,1.53,4.2,6,1.55,4.55,6.42,1.53,4.33,6.5,1.55,4.4,6.25,49,1.6,1.53,4.6,4.31,7,6.2,40,1.66,1.6,2.44,2.3,27,-1,1.92,1.86,2.03,1.99,1.52,4.73,6.61
SP1,17/12/16,Sp Gijon,Villarreal,1,3,A,0,2,A,16,14,7,9,16,14,12,2,2,1,0,0,3.25,3.3,2.2,3.5,3.3,2.15,3.5,3.4,2.1,3.5,3.1,2.15,3.68,3.33,2.23,3.6,3.3,2.2,3.6,3.4,2.2,49,3.75,3.53,3.42,3.28,2.3,2.18,41,2.38,2.28,1.68,1.61,25,0.25,2.03,1.98,1.92,1.87,3.81,3.27,2.21
SP1,18/12/16,Barcelona,Espanol,4,1,H,1,0,H,14,4,7,1,11,16,5,2,0,3,0,0,1.1,10,26,1.1,11,21,1.17,7.5,15,1.11,10,29,1.11,11.58,27.71,1.1,11,26,1.09,11.5,21,49,1.17,1.1,12.38,10.21,29.71,24.66,32,1.38,1.33,3.4,3.23,27,-2.5,1.93,1.88,2.02,1.97,1.12,11,27
SP1,18/12/16,La Coruna,Osasuna,2,0,H,2,0,H,8,13,4,3,8,16,5,1,1,3,0,0,1.57,3.75,6,1.55,3.8,7,1.7,3.7,5,1.55,3.8,6,1.59,4.11,6.82,1.6,3.8,6.5,1.53,4.2,6.25,50,1.7,1.57,4.3,3.99,7,6.24,44,2,1.92,1.96,1.88,28,-1,2.04,1.97,1.93,1.88,1.55,4.29,6.98
SP1,18/12/16,Leganes,Eibar,1,1,D,1,0,H,8,15,2,4,10,10,3,6,2,2,1,0,2.55,3.1,2.88,2.6,3,3,2.4,3.1,3.15,2.62,3,2.9,2.74,3.09,3.02,2.7,3,3,2.7,3.2,2.9,50,2.77,2.63,3.2,3.09,3.15,2.92,42,2.55,2.39,1.62,1.56,26,0,1.89,1.84,2.07,2.01,2.46,3.12,3.41
SP1,19/12/16,Ath Bilbao,Celta,2,1,H,0,0,D,10,10,7,4,16,13,9,7,4,2,0,1,1.83,3.5,4.33,1.87,3.5,4.4,1.8,3.6,4.5,1.85,3.5,4.2,1.91,3.68,4.47,1.91,3.5,4.33,1.85,3.6,4.3,49,1.97,1.88,3.68,3.53,4.5,4.29,43,2.01,1.93,1.94,1.86,22,-0.75,2.19,2.12,1.79,1.75,1.81,3.78,4.9
SP1,06/01/17,Espanol,La Coruna,1,1,D,0,0,D,14,13,4,3,13,14,2,8,1,1,0,1,2.05,3.3,3.8,2.05,3.3,3.9,2,3.4,3.8,2.05,3.1,3.8,2.12,3.25,4.15,2.1,3.3,3.8,2.1,3.4,3.9,51,2.18,2.07,3.4,3.28,4.15,3.88,48,2.49,2.32,1.7,1.6,27,-0.5,2.14,2.07,1.85,1.81,2.23,3.25,3.78
SP1,07/01/17,Eibar,Ath Madrid,0,2,A,0,0,D,15,8,2,4,11,10,5,3,2,2,0,0,5.5,3.5,1.73,5.25,3.6,1.72,5.3,3.8,1.65,5,3.5,1.7,5.48,3.78,1.75,5.5,3.5,1.75,5.4,3.75,1.73,50,5.75,5.38,3.8,3.64,1.77,1.71,47,2.28,2.18,1.74,1.68,25,1,1.69,1.64,2.41,2.3,5.87,3.69,1.73
SP1,07/01/17,Las Palmas,Sp Gijon,1,0,H,0,0,D,16,10,10,2,8,18,8,3,2,3,0,0,1.67,3.75,5.5,1.67,3.9,5.25,1.7,3.7,5,1.65,3.8,5.25,1.66,4.12,5.76,1.7,3.75,5.5,1.67,4,5.5,49,1.71,1.67,4.12,3.9,5.76,5.29,47,1.88,1.82,2.06,1.98,25,-1,2.19,2.14,1.78,1.73,1.61,4.18,6.3
SP1,07/01/17,Real Madrid,Granada,5,0,H,4,0,H,23,3,13,1,11,12,9,1,1,4,0,0,1.07,13,26,1.07,12.5,29,1.07,12,26,1.08,12,29,1.08,16.25,27,1.08,13,34,1.07,15,34,50,1.1,1.07,17.33,13.06,41.59,28.44,37,1.2,1.16,6.15,4.99,27,-3,1.97,1.91,2,1.94,1.07,15.5,36.5
SP1,07/01/17,Sociedad,Sevilla,0,4,A,0,2,A,11,11,5,10,15,18,7,4,2,3,0,0,2.25,3.4,3.2,2.3,3.4,3.1,2.3,3.3,3.15,2.25,3.4,3,2.35,3.62,3.14,2.3,3.5,3.1,2.3,3.5,3.13,49,2.4,2.3,3.62,3.47,3.25,3.08,46,1.8,1.71,2.23,2.11,25,-0.25,2.03,1.99,1.92,1.88,2.56,3.42,2.96
SP1,08/01/17,Ath Bilbao,Alaves,0,0,D,0,0,D,15,10,4,4,10,13,13,4,2,4,0,0,1.53,3.8,7.5,1.57,4,6.25,1.57,3.9,6.1,1.57,3.8,6,1.59,4.14,6.64,1.57,3.8,7,1.57,4,7,50,1.61,1.56,4.14,3.92,7.5,6.58,47,2.18,2.11,1.8,1.72,27,-1,2.07,1.99,1.9,1.85,1.57,4.14,7.02
SP1,08/01/17,Betis,Leganes,2,0,H,0,0,D,16,9,3,3,10,20,4,2,2,6,0,0,2.1,3.25,3.75,2.05,3.3,3.9,2,3.4,3.8,2.1,3,3.75,2.19,3.21,3.96,2.15,3.2,3.8,2.1,3.2,3.75,50,2.19,2.12,3.4,3.22,4.06,3.79,44,2.62,2.47,1.6,1.53,26,-0.25,1.86,1.82,2.14,2.06,2.24,3.14,3.91
SP1,08/01/17,Celta,Malaga,3,1,H,1,0,H,6,13,3,4,17,15,2,7,1,4,0,0,1.85,3.6,4.33,1.87,3.7,4.1,1.9,3.5,4.1,1.85,3.6,4.2,1.88,3.78,4.42,1.85,3.75,4.33,1.85,3.8,4.1,50,1.92,1.87,3.85,3.69,4.43,4.16,48,1.84,1.79,2.14,2.02,24,-0.5,1.9,1.86,2.06,1.99,1.95,3.58,4.37
SP1,08/01/17,Villarreal,Barcelona,1,1,D,0,0,D,6,20,3,7,16,13,2,4,1,2,1,0,6,4.33,1.53,6,4.6,1.5,6.2,4,1.55,5.5,4.2,1.55,5.91,4.54,1.58,6,4.2,1.57,5.75,4.5,1.53,50,6.25,5.86,4.66,4.37,1.59,1.54,47,1.67,1.61,2.42,2.3,27,1,2.04,1.95,1.96,1.89,6.64,4.75,1.52
SP1,09/01/17,Osasuna,Valencia,3,3,D,1,2,A,22,7,4,3,19,13,7,3,2,5,0,0,4,3.5,1.95,3.9,3.6,1.95,3.8,3.4,2,3.75,3.5,1.95,3.92,3.74,2.01,4,3.6,1.95,3.8,3.6,1.95,50,4.1,3.86,3.74,3.59,2.02,1.96,48,2,1.89,1.98,1.9,24,0.5,1.93,1.89,2.01,1.96,4.26,3.64,1.96
SP1,14/01/17,Ath Madrid,Betis,1,0,H,1,0,H,6,10,3,6,15,17,9,2,1,3,0,0,1.2,6.5,17,1.22,6.5,12.5,1.22,6.2,13.5,1.2,6,17,1.22,6.7,18.2,1.22,6,17,1.2,6.5,20,49,1.26,1.21,6.9,6.3,20.8,16.58,45,1.82,1.74,2.2,2.09,26,-1.5,1.71,1.68,2.3,2.23,1.26,6.1,15.4
SP1,14/01/17,Barcelona,Las Palmas,5,0,H,1,0,H,22,7,10,1,15,11,5,1,3,4,0,0,1.1,11,26,1.1,11,19,1.07,12,26,1.11,10,23,1.1,13.22,25.51,1.11,10,26,1.1,11.5,29,49,1.14,1.1,13.22,10.84,29,23.5,34,1.25,1.21,4.95,4.29,26,-2.5,1.82,1.78,2.14,2.08,1.12,11.4,25.5
SP1,14/01/17,La Coruna,Villarreal,0,0,D,0,0,D,13,4,3,1,14,8,10,0,0,1,0,0,2.7,3.1,2.8,2.7,3.1,2.8,2.75,3.25,2.6,2.62,3,2.8,2.73,3.22,2.91,2.75,3.1,2.8,2.75,3.13,2.88,49,2.81,2.71,3.25,3.12,2.91,2.79,45,2.49,2.36,1.65,1.58,28,0,1.93,1.89,2.02,1.96,2.82,3.24,2.8
SP1,14/01/17,Leganes,Ath Bilbao,0,0,D,0,0,D,15,10,5,2,20,11,4,8,3,3,0,0,3.25,3.1,2.38,3.2,3.1,2.4,3.15,3.3,2.3,3.3,3,2.3,3.46,3.18,2.4,3.3,3.1,2.4,3.4,3.2,2.38,49,3.47,3.29,3.3,3.13,2.43,2.37,43,2.67,2.53,1.57,1.51,25,0.25,1.9,1.86,2.05,2,3.54,3.18,2.36
SP1,15/01/17,Celta,Alaves,1,0,H,0,0,D,13,9,4,1,19,10,7,4,4,3,0,1,1.7,3.75,5.25,1.67,3.8,5.25,1.7,3.7,5,1.67,3.5,5.5,1.72,3.75,5.74,1.75,3.75,5,1.67,3.8,5.2,51,1.75,1.7,3.87,3.7,5.85,5.28,48,2.06,1.96,1.93,1.84,25,-0.75,1.94,1.9,2,1.96,1.85,3.56,5.05
SP1,15/01/17,Granada,Osasuna,1,1,D,0,1,A,8,13,4,3,13,23,3,5,2,4,2,0,2.05,3.4,3.8,2,3.4,3.9,2,3.4,3.8,2,3.4,3.8,2.06,3.53,3.98,2.05,3.4,3.8,2,3.5,3.8,49,2.1,2.01,3.53,3.43,4.15,3.85,45,2.15,2.05,1.85,1.76,26,-0.5,2.06,2.01,1.9,1.86,2.03,3.53,4.08
SP1,15/01/17,Sevilla,Real Madrid,2,1,H,0,0,D,9,10,4,3,13,10,6,1,3,1,0,0,3.6,3.8,1.95,3.6,3.9,1.95,3.6,3.6,2,3.4,3.8,1.95,3.71,3.93,2.02,3.8,3.75,1.95,3.5,4,1.95,49,3.85,3.62,4.04,3.8,2.02,1.97,36,1.52,1.47,2.75,2.63,24,0.5,1.93,1.9,2.01,1.97,3.46,3.91,2.11
SP1,15/01/17,Sp Gijon,Eibar,2,3,A,1,3,A,10,18,4,7,13,16,2,4,4,0,0,0,2.9,3.1,2.6,2.85,3.2,2.6,2.7,3.2,2.7,2.88,3.1,2.5,2.98,3.3,2.62,2.9,3.2,2.62,2.88,3.25,2.55,48,2.98,2.87,3.3,3.21,2.7,2.57,44,2.2,2.13,1.79,1.7,28,0,2.11,2.04,1.88,1.82,3.02,3.34,2.57
SP1,15/01/17,Valencia,Espanol,2,1,H,1,0,H,10,6,5,3,17,13,6,3,5,0,0,0,1.91,3.6,4,1.91,3.7,3.9,1.9,3.5,4.1,1.91,3.4,4,1.98,3.63,4.18,1.95,3.6,4,1.95,3.75,3.9,49,2,1.95,3.75,3.55,4.22,3.96,46,1.93,1.86,2,1.94,26,-0.5,2.01,1.96,1.97,1.91,1.87,3.63,4.75
SP1,16/01/17,Malaga,Sociedad,0,2,A,0,0,D,5,11,1,5,22,12,8,8,0,2,0,0,2.4,3.3,3,2.45,3.25,2.95,2.5,3.3,2.85,2.4,3.2,2.9,2.49,3.39,3.09,2.5,3.3,3,2.45,3.4,2.88,48,2.55,2.46,3.41,3.28,3.09,2.97,46,2.06,1.97,1.89,1.82,23,-0.25,2.16,2.1,1.82,1.79,2.31,3.46,3.35
SP1,20/01/17,Las Palmas,La Coruna,1,1,D,1,0,H,9,7,3,1,13,8,4,5,0,1,1,0,2.25,3.3,3.3,2.25,3.3,3.3,2.3,3.3,3.15,2.3,3.2,3.1,2.4,3.35,3.29,2.25,3.4,3.3,2.38,3.3,3.25,50,2.46,2.33,3.4,3.28,3.44,3.23,47,2.1,2.02,1.87,1.79,26,-0.25,2.05,2.01,1.91,1.86,2.44,3.35,3.21
SP1,21/01/17,Alaves,Leganes,2,2,D,1,1,D,8,13,3,4,9,20,4,3,3,2,0,0,2.2,3.1,3.6,2.2,3,3.75,2.2,3.15,3.5,2.25,3,3.5,2.3,3.17,3.69,2.25,3.1,3.6,2.3,3.13,3.6,51,2.31,2.23,3.22,3.11,3.75,3.63,44,2.85,2.65,1.51,1.47,27,-0.25,1.97,1.92,2,1.95,2.39,2.94,3.82
SP1,21/01/17,Espanol,Granada,3,1,H,2,1,H,17,7,8,4,19,17,10,5,0,3,0,0,1.57,4,6,1.57,3.9,6.25,1.65,3.8,5.3,1.62,3.75,6,1.65,3.93,6.26,1.62,3.75,6.5,1.62,4,6.25,51,1.66,1.6,4.1,3.86,6.6,6.15,47,2.15,2.07,1.82,1.75,28,-1,2.18,2.1,1.82,1.78,1.62,3.94,6.77
SP1,21/01/17,Real Madrid,Malaga,2,1,H,2,0,H,14,10,7,6,7,20,5,4,2,3,0,0,1.13,10,17,1.1,10.5,20,1.17,7.5,15,1.14,9,19,1.14,10.5,20.25,1.14,9,17,1.14,10,19,51,1.17,1.13,10.5,9.4,22,18.15,37,1.28,1.24,4.25,3.91,28,-2.5,2.05,1.97,1.95,1.88,1.14,9.95,21.5
SP1,21/01/17,Villarreal,Valencia,0,2,A,0,2,A,20,13,5,5,14,17,7,2,2,2,0,0,1.85,3.6,4.33,1.91,3.6,4,1.9,3.5,4.1,1.83,3.5,4.33,1.88,3.69,4.63,1.91,3.6,4.2,1.9,3.6,4.5,50,1.96,1.88,3.7,3.56,4.63,4.31,47,2.05,1.98,1.89,1.83,26,-0.5,1.93,1.86,2.06,2.01,2.09,3.37,4.08
SP1,22/01/17,Ath Bilbao,Ath Madrid,2,2,D,1,1,D,8,11,5,5,12,9,2,6,2,3,0,0,4,3.2,2.05,3.9,3.3,2.05,3.5,3.4,2.1,3.8,3.2,2.05,4.07,3.35,2.1,4,3.2,2.1,3.9,3.3,2.15,50,4.04,3.86,3.4,3.26,2.15,2.08,44,2.48,2.35,1.64,1.58,24,0.5,1.85,1.8,2.13,2.08,3.8,3.24,2.23
SP1,22/01/17,Betis,Sp Gijon,0,0,D,0,0,D,16,7,4,1,14,20,9,5,2,2,0,0,1.73,3.6,5.25,1.7,3.7,5.25,1.7,3.7,5,1.7,3.5,5.25,1.71,3.78,5.83,1.75,3.5,5.5,1.7,3.7,5.25,50,1.76,1.71,3.8,3.65,5.83,5.33,46,2.2,2.13,1.77,1.7,25,-1,2.42,2.3,1.68,1.64,1.67,4,5.9
SP1,22/01/17,Eibar,Barcelona,0,4,A,0,1,A,14,14,6,7,12,4,8,5,3,1,0,0,9.5,6,1.29,11,6,1.26,11,6,1.25,9,5.5,1.3,10.23,6.01,1.32,11,5.5,1.3,9,5.75,1.3,50,11.25,9.71,6.14,5.79,1.35,1.3,37,1.47,1.43,3,2.77,26,1.5,2.07,2,1.92,1.85,11.03,6.27,1.3
SP1,22/01/17,Osasuna,Sevilla,3,4,A,1,1,D,14,13,7,9,14,8,3,6,5,3,0,0,6,4.33,1.53,6.5,4.4,1.5,5.3,3.8,1.65,6,4.33,1.53,6.35,4.57,1.55,6,4.5,1.53,6.25,4.6,1.53,51,6.65,6.1,4.66,4.39,1.65,1.53,47,1.73,1.65,2.31,2.22,27,1,2.05,2,1.9,1.86,6.4,4.42,1.57
SP1,22/01/17,Sociedad,Celta,1,0,H,0,0,D,17,11,6,5,13,12,4,3,2,2,0,0,1.95,3.6,3.8,2,3.4,3.9,2.1,3.4,3.5,1.91,3.4,3.8,1.96,3.68,4.19,2,3.6,3.8,1.95,3.6,3.8,50,2.1,1.97,3.7,3.56,4.19,3.87,47,1.89,1.83,2.05,1.96,26,-0.5,2.01,1.96,1.97,1.91,1.67,3.97,5.95
SP1,27/01/17,Osasuna,Malaga,1,1,D,0,0,D,14,14,2,5,9,16,4,6,1,0,0,0,2.88,3.3,2.5,2.85,3.3,2.5,2.95,3.3,2.4,2.9,3.2,2.5,3,3.36,2.57,2.88,3.4,2.5,2.9,3.3,2.6,51,3.13,2.91,3.4,3.3,2.65,2.52,47,2.15,2.06,1.83,1.76,27,0,2.16,2.08,1.85,1.8,3.31,3.41,2.35
SP1,28/01/17,Alaves,Ath Madrid,0,0,D,0,0,D,19,8,4,2,19,18,7,2,3,2,0,0,6,3.6,1.62,6,3.6,1.65,5.3,3.8,1.65,6,3.5,1.65,6.74,3.71,1.66,6.5,3.5,1.67,6.25,3.75,1.65,50,6.82,6.2,3.8,3.63,1.71,1.64,46,2.48,2.36,1.64,1.58,27,1,1.74,1.7,2.3,2.21,6.82,3.71,1.66
SP1,28/01/17,Eibar,La Coruna,3,1,H,2,1,H,12,20,6,7,14,7,9,10,0,2,0,0,2.1,3.25,3.75,2.15,3.3,3.5,2.2,3.25,3.4,2.1,3.25,3.5,2.19,3.38,3.73,2.2,3.2,3.6,2.15,3.3,3.75,50,2.22,2.16,3.38,3.28,3.82,3.58,46,2.28,2.2,1.73,1.66,26,-0.25,1.88,1.84,2.09,2.03,2.31,3.38,3.44
SP1,28/01/17,Leganes,Celta,0,2,A,0,1,A,6,3,0,3,20,14,8,0,1,1,0,0,2.3,3.1,3.4,2.35,3.25,3.2,2.6,3.2,2.8,2.3,3.1,3.3,2.38,3.23,3.44,2.4,3.2,3.2,2.38,3.2,3.4,50,2.6,2.37,3.28,3.18,3.44,3.24,46,2.44,2.32,1.65,1.6,26,-0.25,2.04,2,1.91,1.87,2.33,3.12,3.69
SP1,28/01/17,Villarreal,Granada,2,0,H,1,0,H,18,7,6,0,11,18,7,4,3,2,0,0,1.36,4.75,9.5,1.35,5,9,1.37,5,8,1.36,4.5,10,1.37,5.08,10.66,1.4,4.5,10,1.36,4.8,10,50,1.42,1.37,5.08,4.75,10.66,9.58,47,1.97,1.89,1.97,1.9,25,-1.25,1.89,1.85,2.08,2.02,1.41,4.9,9.5
SP1,29/01/17,Ath Bilbao,Sp Gijon,2,1,H,0,1,A,11,5,6,3,11,22,5,0,4,3,0,0,1.36,4.75,9.5,1.36,5.25,8.25,1.37,5,8,1.33,4.75,10,1.36,5.14,11.35,1.36,5,9,1.33,5,10.5,49,1.38,1.34,5.25,4.96,11.35,9.98,45,1.83,1.76,2.13,2.05,26,-1.5,2.07,2,1.9,1.85,1.34,5.64,10.15
SP1,29/01/17,Betis,Barcelona,1,1,D,0,0,D,17,10,7,4,17,12,8,2,2,3,0,0,12,6,1.25,12.5,5.75,1.25,11,6,1.25,11,6,1.25,13.36,6.5,1.26,12,6.5,1.25,11.5,6.5,1.25,49,13.37,11.49,6.5,6.08,1.3,1.26,36,1.46,1.4,3.1,2.85,22,1.75,2.15,2.11,1.83,1.76,12,6.3,1.29
SP1,29/01/17,Espanol,Sevilla,3,1,H,2,1,H,16,12,8,5,18,14,7,4,2,2,0,1,3.3,3.4,2.2,3.4,3.4,2.15,3.5,3.4,2.1,3.3,3.4,2.15,3.43,3.63,2.21,3.2,3.5,2.25,3.4,3.5,2.2,48,3.6,3.33,3.63,3.47,2.28,2.18,46,1.95,1.86,2.03,1.94,23,0.25,2.03,1.98,1.92,1.88,3.54,3.55,2.19
SP1,29/01/17,Real Madrid,Sociedad,3,0,H,1,0,H,7,9,4,3,16,11,0,3,2,1,0,1,1.25,6.5,10,1.25,6.5,10.5,1.25,6.5,10,1.25,6,10,1.25,7.16,11.96,1.25,6.5,12,1.25,6.5,10.5,49,1.3,1.25,7.16,6.43,12.38,10.79,36,1.36,1.33,3.85,3.26,25,-2,2.2,2.14,1.77,1.74,1.35,5.78,9.5
SP1,30/01/17,Las Palmas,Valencia,3,1,H,1,1,D,9,8,4,3,17,13,6,3,1,3,0,1,2.5,3.4,2.8,2.5,3.3,2.85,2.5,3.3,2.85,2.5,3.4,2.75,2.59,3.57,2.82,2.5,3.5,2.8,2.5,3.5,2.75,46,2.65,2.51,3.57,3.4,2.92,2.8,43,1.85,1.79,2.1,2.01,24,0,1.88,1.83,2.08,2.02,2.78,3.43,2.71
SP1,04/02/17,Ath Madrid,Leganes,2,0,H,1,0,H,12,15,4,2,10,15,3,6,1,1,0,0,1.29,5,15,1.28,5.5,12,1.3,5.5,9.5,1.29,4.75,13,1.3,5.47,15.13,1.3,5,15,1.3,5.5,13,44,1.33,1.29,5.5,5.1,15.85,13.82,41,2.13,2.04,1.83,1.78,27,-1.5,2.03,1.96,1.93,1.89,1.31,5.31,14.7
SP1,04/02/17,Barcelona,Ath Bilbao,3,0,H,2,0,H,16,10,6,5,11,18,7,3,1,3,0,0,1.22,6.5,13,1.22,6.75,11.5,1.25,6,11,1.22,6.5,12,1.25,7.19,12.68,1.25,6,13,1.22,6.5,13,44,1.28,1.24,7.19,6.56,13.01,11.97,31,1.35,1.32,3.47,3.3,27,-2,2.07,2.02,1.88,1.84,1.3,6.15,11
SP1,04/02/17,Malaga,Espanol,0,1,A,0,1,A,19,4,5,3,9,18,17,2,1,4,0,0,2.1,3.4,3.6,2.15,3.25,3.6,2.1,3.4,3.5,2.15,3.2,3.5,2.21,3.34,3.72,2.2,3.3,3.6,2.15,3.4,3.7,44,2.23,2.15,3.42,3.33,3.77,3.57,41,2.28,2.17,1.75,1.69,27,-0.25,1.89,1.85,2.08,2.02,2.14,3.49,3.76
SP1,04/02/17,Valencia,Eibar,0,4,A,0,2,A,8,11,1,7,12,10,2,6,2,1,1,0,1.91,3.6,4,1.87,3.6,4.2,1.8,3.6,4.5,1.85,3.5,4,1.92,3.75,4.32,1.95,3.6,4,1.95,3.7,4.1,48,1.98,1.91,3.77,3.64,4.5,4.05,46,1.89,1.8,2.07,2.01,27,-0.5,1.96,1.91,2.02,1.96,1.88,3.79,4.49
SP1,05/02/17,Sevilla,Villarreal,0,0,D,0,0,D,14,11,4,4,14,16,9,0,2,2,0,0,1.6,3.8,6,1.65,3.8,5.5,1.7,3.7,5,1.62,3.8,5.25,1.67,4.08,5.72,1.67,3.8,5.5,1.67,4,5.5,48,1.72,1.65,4.08,3.93,6,5.36,45,1.81,1.75,2.17,2.07,25,-0.75,1.86,1.82,2.12,2.05,1.62,4.32,5.84
SP1,05/02/17,Sociedad,Osasuna,3,2,H,0,1,A,13,11,6,5,6,22,3,2,2,2,0,0,1.3,5.25,11,1.33,5,10.5,1.37,5,8,1.33,5,10,1.35,5.37,10.55,1.33,5,11,1.3,5.5,10,48,1.38,1.33,5.56,5.13,11,10.07,45,1.71,1.65,2.3,2.22,27,-1.5,2.01,1.95,1.95,1.9,1.39,5.03,9.96
SP1,05/02/17,Sp Gijon,Alaves,2,4,A,0,1,A,12,14,4,7,20,20,8,4,7,3,0,0,2.2,3.3,3.4,2.15,3.2,3.7,2.2,3.35,3.3,2.15,3.1,3.6,2.19,3.33,3.81,2.2,3.2,3.6,2.2,3.3,3.7,44,2.32,2.2,3.35,3.22,3.81,3.57,38,2.62,2.4,1.61,1.56,26,-0.25,1.9,1.86,2.07,2.01,2.31,3.25,3.59
SP1,06/02/17,Granada,Las Palmas,1,0,H,1,0,H,12,15,4,5,27,9,6,5,5,3,0,0,3,3.4,2.38,2.95,3.5,2.35,2.9,3.2,2.5,3,3.3,2.3,3.15,3.49,2.41,3,3.4,2.4,3,3.4,2.38,47,3.15,3.03,3.5,3.35,2.5,2.39,45,2.02,1.95,1.93,1.85,24,0.25,1.88,1.82,2.11,2.05,3.01,3.5,2.49
SP1,10/02/17,Espanol,Sociedad,1,2,A,1,1,D,7,15,2,5,15,14,5,6,3,2,0,0,2.8,3.2,2.63,2.8,3.1,2.7,2.6,3.25,2.75,2.8,3,2.62,2.89,3.21,2.76,2.9,3.2,2.6,2.88,3.2,2.7,41,3.02,2.83,3.25,3.15,2.78,2.68,39,2.34,2.26,1.7,1.64,25,0,2.05,1.98,1.93,1.88,3.01,3.2,2.66
SP1,11/02/17,Alaves,Barcelona,0,6,A,0,2,A,9,21,4,9,16,9,3,9,1,3,0,0,10,5.5,1.3,9.5,5.25,1.33,8.7,5.3,1.33,10,5.25,1.3,11,5.88,1.32,10,5,1.33,11,5.5,1.33,41,11.5,10.05,5.88,5.36,1.37,1.32,38,1.67,1.61,2.5,2.32,23,1.5,2,1.94,1.96,1.91,11.35,5.84,1.31
SP1,11/02/17,Ath Bilbao,La Coruna,2,1,H,0,1,A,13,8,5,3,12,11,3,2,1,2,0,0,1.67,3.6,5.75,1.65,3.8,5.5,1.65,3.8,5.3,1.7,3.5,5.25,1.75,3.76,5.54,1.7,3.75,5.5,1.75,3.75,5.25,40,1.8,1.71,3.8,3.66,5.75,5.38,38,2.12,2.04,1.85,1.78,23,-1,2.42,2.33,1.67,1.64,1.68,3.89,5.99
SP1,11/02/17,Betis,Valencia,0,0,D,0,0,D,16,8,2,4,15,17,4,6,4,3,0,0,2.5,3.25,2.9,2.5,3.25,2.9,2.6,3.25,2.75,2.4,3.25,2.9,2.51,3.41,3.05,2.5,3.3,3,2.5,3.4,3,40,2.6,2.49,3.42,3.29,3.07,2.95,39,2.04,1.96,1.92,1.85,25,0,1.82,1.78,2.17,2.11,2.52,3.33,3.1
SP1,11/02/17,Osasuna,Real Madrid,1,3,A,1,1,D,11,12,8,6,10,8,3,2,3,2,0,0,13,6.5,1.22,13,6.5,1.22,11,6,1.25,11,6,1.25,12.25,6.9,1.26,13,6,1.25,13,6.5,1.25,41,14.36,11.99,6.9,6.36,1.28,1.24,30,1.42,1.38,3.1,2.99,24,2,1.85,1.8,2.15,2.08,14.1,7.06,1.24
SP1,12/02/17,Ath Madrid,Celta,3,2,H,1,1,D,16,14,5,6,11,13,3,3,1,2,0,0,1.4,4.5,8.5,1.36,4.75,9.5,1.35,5,8.5,1.36,4.75,9,1.39,5.11,9.68,1.4,4.8,8.5,1.36,4.8,9,40,1.43,1.38,5.11,4.75,9.68,8.95,39,1.91,1.86,2.03,1.95,23,-1.5,2.19,2.12,1.82,1.76,1.39,4.96,10.07
SP1,12/02/17,Las Palmas,Sevilla,0,1,A,0,0,D,15,12,7,3,15,16,1,4,2,4,0,0,3.3,3.6,2.1,3.2,3.7,2.15,3.3,3.35,2.2,3.2,3.5,2.15,3.42,3.67,2.2,3.25,3.6,2.2,3.2,3.6,2.2,40,3.42,3.25,3.7,3.55,2.32,2.19,38,1.75,1.69,2.25,2.16,22,0.25,2.01,1.97,1.94,1.9,3.27,3.79,2.22
SP1,12/02/17,Leganes,Sp Gijon,0,2,A,0,0,D,9,4,3,2,16,16,4,3,3,6,0,1,1.83,3.4,4.75,1.83,3.4,4.75,1.8,3.6,4.5,1.83,3.3,4.75,1.87,3.5,5.01,1.83,3.4,5,1.85,3.5,5,40,1.89,1.84,3.6,3.42,5.01,4.75,35,2.43,2.35,1.65,1.59,22,-0.5,1.88,1.83,2.08,2.04,1.81,3.61,5.25
SP1,12/02/17,Villarreal,Malaga,1,1,D,0,1,A,12,11,5,5,14,12,9,9,0,5,1,0,1.8,3.5,4.75,1.78,3.7,4.6,1.7,3.7,5,1.75,3.5,4.5,1.82,3.74,4.94,1.8,3.5,5,1.8,3.75,4.8,41,1.87,1.8,3.81,3.61,5,4.72,40,2.12,2.02,1.85,1.79,22,-1,2.58,2.48,1.6,1.57,1.78,3.72,5.32
SP1,13/02/17,Eibar,Granada,4,0,H,2,0,H,25,13,9,3,11,14,7,8,2,2,0,0,1.55,4.2,6,1.57,4,6.25,1.6,3.9,5.7,1.57,4,5.75,1.6,4.32,6.14,1.6,4,6,1.55,4.2,6,39,1.64,1.58,4.33,4.11,6.5,5.91,38,1.91,1.84,2.06,1.98,23,-1,2.05,2,1.9,1.86,1.51,4.59,7.14
SP1,17/02/17,Granada,Betis,4,1,H,3,0,H,10,6,8,2,18,9,4,7,4,1,1,1,3,3.2,2.5,2.6,3.2,2.65,2.65,3.3,2.65,2.9,3.1,2.5,3.04,3.25,2.61,2.8,3.3,2.5,3,3.3,2.55,44,3.04,2.92,3.32,3.22,2.65,2.54,40,2.19,2.09,1.78,1.74,26,0,2.13,2.06,1.83,1.8,3.11,3.23,2.57
SP1,18/02/17,La Coruna,Alaves,0,1,A,0,0,D,16,6,4,4,13,13,10,6,5,3,0,0,2,3.1,4.2,2,3.25,3.8,2.1,3.4,3.5,2,3.1,4.2,2.03,3.32,4.42,2.05,3.3,4,2.05,3.3,4.2,44,2.1,2.01,3.4,3.26,4.42,4.1,40,2.55,2.4,1.63,1.57,24,-0.5,2.05,2,1.91,1.94,2.25,3.13,3.9
SP1,18/02/17,Real Madrid,Espanol,2,0,H,1,0,H,12,3,3,1,12,13,13,2,3,4,0,0,1.14,8,21,1.17,7,13.5,1.2,6.5,15,1.17,7.5,17,1.18,8.45,18.5,1.18,7.5,13,1.18,8,15,44,1.2,1.17,8.49,7.55,21,16.32,32,1.4,1.36,3.3,3.08,24,-2.25,2.05,2,1.9,1.85,1.2,7.85,16.15
SP1,18/02/17,Sevilla,Eibar,2,0,H,1,0,H,11,11,5,3,13,11,5,2,2,3,0,0,1.45,4.5,7,1.48,4.25,6.25,1.5,4.2,6.5,1.5,4.33,6,1.54,4.66,6.44,1.44,4.5,6.5,1.55,4.5,6.25,44,1.56,1.51,4.66,4.42,7,6.19,39,1.62,1.57,2.52,2.37,26,-1,1.88,1.84,2.07,2.01,1.51,4.76,6.7
SP1,18/02/17,Sp Gijon,Ath Madrid,1,4,A,0,0,D,15,11,2,6,12,10,12,3,1,1,0,0,7.5,4,1.5,7.25,4.1,1.45,6.5,4.2,1.5,6.5,4,1.5,7.51,4.32,1.53,7,4,1.5,7.5,4.3,1.5,44,7.71,6.99,4.35,4.13,1.56,1.51,41,2.05,1.99,1.87,1.81,26,1,2.04,1.99,1.91,1.87,7.59,4.36,1.52
SP1,19/02/17,Barcelona,Leganes,2,1,H,1,0,H,13,11,6,6,8,18,4,4,1,3,0,0,1.07,11,41,1.09,10,18.5,1.1,9,27,1.1,10,29,1.08,15.18,32.91,1.08,11,23,1.06,13,29,44,1.11,1.08,15.18,11.36,41,28.52,32,1.35,1.32,3.7,3.35,22,-2.75,2.04,1.98,1.91,1.86,1.1,13.2,28.4
SP1,19/02/17,Celta,Osasuna,3,0,H,1,0,H,11,8,4,3,14,18,3,5,1,0,0,0,1.57,4.2,5.5,1.5,4.2,6,1.55,4,6.2,1.57,3.8,5.75,1.61,4.19,6.22,1.53,4.2,6,1.6,4.2,5.5,44,1.62,1.58,4.28,4.08,6.22,5.81,40,1.83,1.76,2.16,2.06,26,-1,2.07,2.01,1.88,1.84,1.71,3.7,6.04
SP1,19/02/17,Sociedad,Villarreal,0,1,A,0,0,D,16,7,0,3,8,19,7,4,2,4,0,0,1.95,3.3,4.2,1.9,3.3,4.2,1.9,3.5,4.1,1.91,3.4,4.2,1.94,3.6,4.39,1.95,3.4,4.2,1.9,3.5,4.2,43,2.01,1.93,3.6,3.41,4.42,4.24,38,2.27,2.17,1.77,1.68,22,-0.5,1.95,1.91,2,1.94,2.1,3.42,3.98
SP1,19/02/17,Valencia,Ath Bilbao,2,0,H,2,0,H,15,15,5,5,17,11,3,1,0,1,0,0,2.3,3.25,3.25,2.3,3.3,3,2.3,3.3,3.15,2.3,3.3,3.1,2.37,3.44,3.24,2.3,3.4,3.1,2.3,3.4,3.13,44,2.4,2.32,3.44,3.32,3.29,3.15,41,2.04,1.96,1.91,1.85,24,-0.25,2.04,1.98,1.92,1.88,2.22,3.39,3.65
SP1,20/02/17,Malaga,Las Palmas,2,1,H,2,1,H,13,13,6,4,23,14,2,6,3,3,1,0,1.95,3.5,4,2,3.4,3.6,2,3.4,3.8,1.95,3.3,4,1.99,3.54,4.25,1.95,3.4,4,1.95,3.5,3.9,41,2.02,1.96,3.6,3.46,4.35,4,38,2.02,1.95,1.92,1.84,21,-0.25,1.73,1.68,2.33,1.89,2,3.67,4.04
SP1,22/02/17,Valencia,Real Madrid,2,1,H,2,1,H,8,22,5,5,12,18,3,11,5,2,0,0,6,4.33,1.53,5.5,4.6,1.53,5.5,4,1.6,5.25,4.33,1.55,5.89,4.63,1.57,5.5,4.2,1.57,5.75,4.6,1.57,47,6,5.67,4.63,4.4,1.6,1.56,36,1.53,1.49,2.75,2.58,23,1,1.99,1.95,1.98,1.91,6.49,4.9,1.51
SP1,24/02/17,Las Palmas,Sociedad,0,1,A,0,0,D,18,9,7,2,14,19,6,1,2,2,0,0,2.6,3.4,2.7,2.65,3.4,2.65,2.7,3.3,2.6,2.62,3.3,2.62,2.74,3.41,2.77,2.7,3.3,2.6,2.7,3.4,2.75,49,2.76,2.66,3.52,3.34,2.85,2.7,47,1.93,1.86,2.02,1.94,25,-0.25,2.35,2.28,1.7,1.67,2.71,3.32,2.87
SP1,25/02/17,Alaves,Valencia,2,1,H,0,0,D,13,5,5,2,13,16,2,1,4,2,0,1,2.63,3.1,2.88,2.7,3.1,2.8,2.65,3.3,2.65,2.62,3,2.8,2.71,3.16,2.99,2.7,3.1,2.9,2.7,3.13,2.9,48,2.8,2.67,3.3,3.09,2.99,2.86,45,2.43,2.32,1.65,1.6,25,0,1.9,1.86,2.08,2,2.63,3.17,3.09
SP1,25/02/17,Betis,Sevilla,1,2,A,1,0,H,15,13,4,4,19,17,4,4,3,3,0,0,3.8,3.4,2.05,3.9,3.4,2,3.8,3.4,2,3.5,3.4,2.05,3.75,3.54,2.1,3.75,3.5,2.05,3.6,3.5,2.15,48,3.9,3.69,3.57,3.46,2.15,2.06,46,1.98,1.89,1.98,1.91,22,0.5,1.85,1.8,2.13,2.07,3.75,3.53,2.13
SP1,25/02/17,Eibar,Malaga,3,0,H,1,0,H,8,4,4,2,11,18,2,2,2,4,0,1,2.05,3.4,3.8,2.05,3.4,3.7,2.2,3.35,3.3,2,3.3,3.6,2.08,3.55,3.91,2.05,3.5,3.75,2.1,3.5,3.75,48,2.2,2.05,3.6,3.46,3.91,3.7,46,2.05,1.96,1.92,1.84,24,-0.5,2.09,2.05,1.9,1.83,1.98,3.61,4.2
SP1,25/02/17,Leganes,La Coruna,4,0,H,2,0,H,7,11,5,3,18,13,2,7,2,5,0,1,2.4,3.1,3.2,2.5,3,3.2,2.3,3.3,3.15,2.5,3,3,2.64,3.12,3.11,2.5,3.1,3.2,2.55,3.1,3.2,48,2.64,2.5,3.3,3.07,3.25,3.11,43,2.8,2.61,1.55,1.48,24,-0.25,2.21,2.11,1.81,1.78,2.29,3.15,3.76
SP1,26/02/17,Ath Bilbao,Granada,3,1,H,2,1,H,14,7,7,2,14,16,0,3,1,5,0,0,1.44,4.5,7.5,1.45,4.25,7.75,1.4,4.8,7.5,1.44,4.2,7,1.49,4.57,7.68,1.5,4.33,7,1.45,4.5,7.5,47,1.5,1.47,4.8,4.38,8.32,7.31,44,1.86,1.76,2.12,2.05,22,-1.5,2.43,2.34,1.66,1.62,1.52,4.47,7.33
SP1,26/02/17,Ath Madrid,Barcelona,1,2,A,0,0,D,12,15,4,6,28,14,6,5,4,2,0,0,3,3.4,2.38,2.95,3.4,2.4,2.95,3.3,2.4,2.9,3.4,2.4,2.99,3.52,2.49,3,3.3,2.5,2.88,3.5,2.4,49,3.05,2.94,3.52,3.41,2.55,2.42,47,1.95,1.86,2.05,1.94,23,0.25,1.83,1.79,2.15,2.08,2.98,3.51,2.51
SP1,26/02/17,Espanol,Osasuna,3,0,H,1,0,H,18,4,6,1,11,10,10,2,1,4,0,1,1.67,3.8,5.5,1.6,3.8,6,1.65,3.8,5.3,1.65,3.6,5.5,1.67,3.88,6.09,1.7,3.75,5.5,1.67,3.8,6,48,1.72,1.66,3.88,3.72,6.14,5.75,45,2.19,2.11,1.8,1.72,23,-1,2.26,2.18,1.74,1.71,1.74,3.57,6.04
SP1,26/02/17,Sp Gijon,Celta,1,1,D,0,0,D,20,16,6,5,9,17,7,5,2,4,1,0,2.63,3.4,2.63,2.65,3.4,2.65,2.7,3.3,2.6,2.7,3.1,2.7,2.78,3.31,2.78,2.7,3.3,2.7,2.63,3.4,2.7,47,2.78,2.69,3.42,3.28,2.82,2.7,45,2.06,2,1.87,1.81,24,0,1.97,1.92,1.99,1.93,2.74,3.46,2.74
SP1,26/02/17,Villarreal,Real Madrid,2,3,A,0,0,D,11,25,4,6,15,6,5,5,4,1,0,0,5.5,3.75,1.67,4.75,4.2,1.67,5.3,3.8,1.65,4.75,4,1.67,5.28,4.1,1.7,5,4,1.7,5,4,1.67,47,5.5,5.04,4.2,3.93,1.73,1.69,44,1.74,1.68,2.26,2.17,22,1,1.76,1.72,2.26,2.16,6.11,4.26,1.61
SP1,28/02/17,Malaga,Betis,1,2,A,1,0,H,15,11,4,5,8,16,7,5,3,5,0,0,1.95,3.5,4,1.95,3.4,4.1,1.9,3.5,4.1,1.91,3.3,4.2,1.96,3.46,4.5,2,3.4,4,1.95,3.5,4.3,48,2,1.94,3.52,3.42,4.5,4.19,46,2.34,2.22,1.72,1.65,24,-0.5,1.98,1.94,1.99,1.93,1.87,3.5,5
SP1,28/02/17,Sociedad,Eibar,2,2,D,1,1,D,14,13,7,4,12,20,3,5,3,4,1,1,1.85,3.5,4.5,1.83,3.5,4.6,1.8,3.6,4.5,1.8,3.5,4.5,1.85,3.65,4.82,1.85,3.6,4.5,1.85,3.6,4.75,48,1.88,1.83,3.72,3.56,4.82,4.58,47,2.01,1.94,1.94,1.86,24,-0.5,1.86,1.82,2.11,2.06,1.81,3.57,5.38
SP1,28/02/17,Valencia,Leganes,1,0,H,1,0,H,16,3,6,0,12,26,7,3,3,2,0,1,1.75,3.6,5,1.75,3.6,5,1.7,3.9,4.8,1.75,3.4,4.75,1.81,3.63,5.22,1.75,3.75,5,1.8,3.7,5,48,1.82,1.77,3.9,3.53,5.35,5.02,46,2.25,2.14,1.79,1.7,23,-1,2.6,2.48,1.61,1.56,1.83,3.52,5.33
SP1,01/03/17,Barcelona,Sp Gijon,6,1,H,3,1,H,25,5,9,2,14,12,10,3,1,3,0,0,1.05,15,41,1.06,13,29,1.07,12,26,1.07,13,34,1.08,17.5,30.2,1.08,12,26,1.06,15,46,47,1.1,1.06,17.5,13.63,46,30.72,36,1.19,1.16,5.85,5.02,22,-3,1.87,1.8,2.12,2.07,1.06,20.5,35
SP1,01/03/17,Celta,Espanol,2,2,D,2,2,D,8,8,4,2,16,8,1,3,2,2,1,0,1.91,3.4,4.33,1.91,3.5,4.2,1.85,3.5,4.3,1.85,3.3,4.33,1.95,3.5,4.53,1.95,3.5,4.2,1.95,3.5,4.33,48,1.98,1.93,3.52,3.42,4.53,4.21,46,2.12,2.05,1.83,1.76,21,-0.5,1.95,1.91,1.99,1.95,1.94,3.49,4.59
SP1,01/03/17,Granada,Alaves,2,1,H,1,0,H,13,11,6,5,19,15,4,4,6,4,0,2,2.63,3.2,2.8,2.65,3.1,2.85,2.65,3.3,2.65,2.62,3,2.8,2.74,3.18,2.94,2.75,3.1,2.8,2.75,3.2,2.8,48,2.77,2.68,3.3,3.1,2.96,2.81,44,2.58,2.41,1.61,1.56,24,0,1.93,1.89,2.04,1.98,2.64,3.19,3.06
SP1,01/03/17,Osasuna,Villarreal,1,4,A,0,2,A,17,12,3,6,10,13,8,2,3,3,0,0,3.8,3.4,2.05,4,3.3,2,4.3,3.5,1.85,3.6,3.25,2.05,3.88,3.4,2.14,4,3.3,2.05,3.9,3.4,2.1,48,4.3,3.8,3.5,3.33,2.14,2.07,45,2.28,2.19,1.71,1.67,21,0.5,1.83,1.81,2.14,2.07,3.9,3.36,2.14
SP1,01/03/17,Real Madrid,Las Palmas,3,3,D,1,1,D,20,17,7,8,15,16,7,4,4,3,1,0,1.13,9,21,1.16,8.25,14.5,1.12,9,20,1.14,8.5,17,1.15,10.2,19.25,1.14,8.5,21,1.14,9.5,20,48,1.18,1.14,10.26,8.77,21,17.82,36,1.28,1.23,4.45,4.03,23,-2.5,2.06,2.01,1.9,1.85,1.14,10.95,18.3
SP1,02/03/17,La Coruna,Ath Madrid,1,1,D,1,0,H,13,10,2,4,14,10,7,2,2,1,0,0,5.5,3.75,1.65,5.75,3.6,1.67,5,4,1.65,5.5,3.5,1.67,6.22,3.66,1.7,5.5,3.6,1.73,5.5,3.75,1.67,48,6.22,5.59,4,3.62,1.74,1.69,46,2.25,2.17,1.75,1.68,22,1,1.71,1.66,2.35,2.27,5.25,3.81,1.76
SP1,02/03/17,Sevilla,Ath Bilbao,1,0,H,1,0,H,14,14,4,4,16,10,6,9,6,2,0,0,1.67,3.8,5.25,1.67,3.8,5.25,1.65,4,5,1.65,3.8,5.25,1.68,4.07,5.58,1.67,3.8,5.5,1.65,4,5.2,47,1.72,1.67,4.07,3.89,5.58,5.14,46,1.8,1.74,2.19,2.08,22,-0.5,1.72,1.66,2.36,2.28,1.64,4.25,5.73
SP1,03/03/17,Betis,Sociedad,2,3,A,1,2,A,12,9,5,6,18,15,7,6,4,2,0,0,2.6,3.2,2.88,2.55,3.1,2.95,2.6,3.1,2.85,2.62,3,2.88,2.72,3.15,2.99,2.5,3.1,3.1,2.6,3.2,3,48,2.73,2.61,3.22,3.1,3.1,2.95,46,2.38,2.3,1.68,1.62,23,-0.25,2.3,2.2,1.77,1.72,2.55,3.17,3.2
SP1,04/03/17,Barcelona,Celta,5,0,H,2,0,H,19,7,9,2,10,16,10,1,1,3,0,0,1.13,8.5,23,1.14,8.75,16.5,1.15,8,16,1.13,9,17,1.16,9.6,19.5,1.14,9,17,1.13,10,20,47,1.18,1.14,10.4,9.08,23,17.88,35,1.23,1.2,4.66,4.33,20,-2.5,1.95,1.91,2,1.96,1.16,10.12,17
SP1,04/03/17,Eibar,Real Madrid,1,4,A,0,3,A,12,12,2,7,13,14,4,4,1,1,0,0,5,4,1.67,5,4.1,1.65,6.2,4,1.55,4.5,4,1.7,4.99,4.22,1.71,4.75,4,1.73,4.8,4,1.75,47,6.2,5.03,4.35,3.99,1.75,1.68,43,1.67,1.6,2.45,2.32,23,1,1.91,1.75,2.26,2.14,4.62,4.23,1.76
SP1,04/03/17,Leganes,Granada,1,0,H,0,0,D,16,1,4,1,17,19,7,4,3,2,0,0,1.8,3.4,5,1.83,3.4,4.75,1.8,3.6,4.5,1.8,3.3,5,1.85,3.48,5.23,1.83,3.4,5,1.8,3.5,5.2,47,1.88,1.81,3.6,3.41,5.4,5,44,2.5,2.41,1.63,1.56,22,-0.5,1.86,1.81,2.12,2.08,1.84,3.55,5.15
SP1,04/03/17,Villarreal,Espanol,2,0,H,1,0,H,11,8,6,2,13,18,1,1,2,2,0,0,1.73,3.6,5.25,1.75,3.6,5,1.75,3.7,4.7,1.75,3.4,5.25,1.77,3.63,5.57,1.8,3.5,5,1.75,3.7,5.2,47,1.82,1.76,3.7,3.57,5.57,5.12,44,2.31,2.23,1.7,1.65,20,-0.75,2.06,2,1.91,1.87,1.71,3.8,5.82
SP1,05/03/17,Ath Bilbao,Malaga,1,0,H,0,0,D,15,8,3,2,13,18,8,2,3,5,0,0,1.75,3.6,5,1.78,3.6,4.75,1.7,3.7,5,1.75,3.4,4.75,1.82,3.65,5.07,1.83,3.6,4.5,1.8,3.7,4.5,46,1.85,1.8,3.75,3.62,5.07,4.66,45,2.03,1.92,1.95,1.88,20,-1,2.54,2.44,1.6,1.57,1.74,3.92,5.28
SP1,05/03/17,Ath Madrid,Valencia,3,0,H,1,0,H,18,6,8,2,17,9,6,2,1,2,0,0,1.44,4.5,7.5,1.42,4.6,7.75,1.45,4.5,7,1.48,4.33,6.5,1.49,4.7,7.4,1.5,4.33,7,1.5,4.6,7,46,1.51,1.47,4.7,4.46,7.8,7.05,44,1.8,1.73,2.2,2.09,21,-1,1.84,1.79,2.15,2.09,1.46,4.77,7.96
SP1,05/03/17,Las Palmas,Osasuna,5,2,H,1,2,A,16,10,8,4,7,21,5,1,4,4,0,0,1.57,4,6,1.57,4.1,5.75,1.5,4.2,6,1.57,4,5.5,1.6,4.37,6,1.6,4,6,1.57,4.2,5.75,46,1.63,1.59,4.37,4.12,6.2,5.75,45,1.8,1.74,2.18,2.08,21,-1,2.04,2,1.9,1.86,1.47,4.75,7.77
SP1,05/03/17,Sp Gijon,La Coruna,0,1,A,0,1,A,9,7,2,3,11,13,6,4,4,5,0,0,2.6,3.2,2.88,2.5,3.3,2.85,2.4,3.3,2.95,2.5,3.2,2.8,2.71,3.28,2.89,2.62,3.2,2.9,2.63,3.3,2.8,46,2.71,2.59,3.32,3.23,3.02,2.84,44,2.15,2.06,1.81,1.76,22,0,1.91,1.85,2.1,2.01,2.59,3.45,2.91
SP1,06/03/17,Alaves,Sevilla,1,1,D,0,1,A,18,9,4,1,12,16,2,2,2,5,0,0,4.1,3.4,1.95,3.9,3.5,1.95,4.1,3.5,1.9,3.8,3.3,1.95,4.22,3.48,2.02,4,3.4,2,3.8,3.5,2,46,4.22,4,3.5,3.4,2.04,1.98,44,2.15,2.06,1.81,1.75,19,0.5,1.92,1.88,2.03,1.99,3.88,3.34,2.16
SP1,08/03/17,La Coruna,Betis,1,1,D,0,0,D,15,5,5,3,22,17,6,4,4,7,0,0,2.15,3.2,3.7,2.05,3.4,3.75,2.1,3.3,3.6,2.05,3.2,3.8,2.13,3.33,3.99,2.15,3.2,3.6,2.1,3.3,4,46,2.2,2.09,3.4,3.27,4.01,3.77,43,2.41,2.29,1.69,1.62,20,-0.25,1.83,1.78,2.16,2.1,2.24,3.21,3.81
SP1,10/03/17,Espanol,Las Palmas,4,3,H,2,1,H,12,12,6,5,18,12,2,5,2,4,0,0,2.2,3.4,3.3,2.2,3.3,3.4,2.1,3.4,3.5,2.2,3.25,3.3,2.27,3.39,3.52,2.25,3.4,3.3,2.25,3.4,3.4,45,2.32,2.22,3.4,3.34,3.57,3.38,44,2.1,1.98,1.91,1.83,22,-0.25,1.95,1.91,2.01,1.96,2.19,3.44,3.65
SP1,11/03/17,Granada,Ath Madrid,0,1,A,0,0,D,12,15,2,6,14,15,4,9,3,3,1,0,7.5,4,1.5,7,4.33,1.48,6.5,4.2,1.5,6.5,4.2,1.5,7.73,4.41,1.51,7.5,4,1.53,7.5,4.33,1.5,45,8.02,7.25,4.41,4.16,1.55,1.5,44,2,1.92,1.96,1.87,20,1,2.13,2.05,1.85,1.82,9.64,5,1.4
SP1,11/03/17,Malaga,Alaves,1,2,A,0,1,A,15,4,9,2,17,13,5,3,2,1,0,1,2,3.3,4,2,3.3,4,1.9,3.5,4.1,1.95,3.1,4.2,2.03,3.33,4.4,2,3.2,4.33,2,3.4,4.2,45,2.07,2,3.5,3.28,4.4,4.13,43,2.36,2.28,1.68,1.62,20,-0.25,1.75,1.71,2.26,2.19,1.94,3.33,4.86
SP1,11/03/17,Sevilla,Leganes,1,1,D,1,1,D,12,12,4,4,20,20,4,1,2,3,0,0,1.36,4.75,8,1.4,4.5,8.5,1.4,4.8,7.5,1.4,4.33,8.5,1.43,4.65,9.35,1.4,4.8,8.5,1.4,4.8,8.5,45,1.44,1.4,4.8,4.57,9.5,8.58,44,1.99,1.87,2,1.93,19,-1.25,2.01,1.95,1.96,1.91,1.56,4.28,6.91
SP1,11/03/17,Valencia,Sp Gijon,1,1,D,0,0,D,20,10,7,4,15,20,7,9,3,5,0,0,1.5,4.33,6.5,1.45,4.5,7,1.4,4.8,7.5,1.48,4.33,6.5,1.5,4.73,7.15,1.53,4.5,6,1.5,4.6,7,44,1.53,1.48,4.8,4.49,7.5,6.75,39,1.7,1.64,2.35,2.24,20,-1,1.82,1.77,2.18,2.1,1.51,4.66,7.06
SP1,12/03/17,Celta,Villarreal,0,1,A,0,1,A,12,8,1,4,8,11,4,3,4,5,0,0,2.75,3.2,2.75,2.7,3.2,2.7,2.65,3.3,2.65,2.7,3.1,2.62,2.81,3.29,2.77,2.75,3.2,2.75,2.7,3.25,2.7,44,2.84,2.75,3.31,3.19,2.8,2.7,42,2.28,2.13,1.76,1.7,21,0,1.99,1.94,1.96,1.91,3.32,3.35,2.38
SP1,12/03/17,La Coruna,Barcelona,2,1,H,1,0,H,14,16,9,5,7,8,4,8,2,0,0,0,13,6.5,1.22,13,6.5,1.22,15,6.5,1.2,12,6.5,1.22,13.05,7.01,1.25,13,6,1.25,12,7,1.22,44,15,12.41,7.13,6.55,1.27,1.23,34,1.42,1.39,3.12,2.95,20,2,1.9,1.84,2.06,2.01,12.49,6.42,1.27
SP1,12/03/17,Real Madrid,Betis,2,1,H,1,1,D,14,9,4,4,8,21,8,4,1,0,0,1,1.13,9,21,1.12,9,21,1.12,9,20,1.13,9,21,1.14,10.34,21.04,1.14,8.5,23,1.1,9.5,26,44,1.16,1.12,10.69,9.24,27.73,21.5,34,1.31,1.29,3.8,3.57,20,-2.5,2.02,1.96,1.95,1.89,1.14,10.3,20.75
SP1,12/03/17,Sociedad,Ath Bilbao,0,2,A,0,1,A,16,9,4,5,15,22,8,3,3,6,0,0,2.1,3.3,3.5,2.15,3.3,3.6,2.1,3.4,3.5,2.15,3.3,3.4,2.19,3.47,3.63,2.25,3.3,3.4,2.2,3.4,3.6,44,2.25,2.16,3.5,3.34,3.63,3.5,42,2.13,2.07,1.83,1.75,20,-0.25,1.92,1.86,2.07,2.01,2.35,3.28,3.46
SP1,13/03/17,Osasuna,Eibar,1,1,D,0,0,D,10,14,6,7,15,14,6,6,4,4,0,0,3.6,3.4,2.1,3.6,3.4,2.1,3.9,3.6,1.9,3.5,3.5,2.05,3.78,3.58,2.1,3.6,3.5,2.1,3.5,3.6,2.05,42,3.9,3.57,3.8,3.49,2.15,2.08,41,1.92,1.84,2.02,1.96,16,0.25,2.14,2.08,1.83,1.8,3.99,3.85,1.96
SP1,17/03/17,Las Palmas,Villarreal,1,0,H,1,0,H,19,8,10,3,14,14,8,5,2,2,0,1,2.55,3.4,2.75,2.6,3.5,2.65,2.65,3.3,2.65,2.5,3.4,2.62,2.64,3.59,2.75,2.62,3.3,2.8,2.6,3.5,2.8,47,2.72,2.58,3.6,3.44,2.9,2.72,45,1.91,1.76,2.2,2.07,23,0,1.96,1.88,2.05,1.98,2.6,3.58,2.8
SP1,18/03/17,Alaves,Sociedad,1,0,H,1,0,H,10,10,5,2,14,13,5,8,3,3,0,1,2.55,3.2,2.9,2.55,3.25,2.85,2.75,3.25,2.6,2.5,3,2.9,2.65,3.17,3.06,2.62,3.2,2.9,2.6,3.2,3,47,2.9,2.62,3.28,3.12,3.06,2.9,44,2.43,2.35,1.63,1.58,23,0,2.02,1.83,2.12,2.03,2.65,3.23,3.01
SP1,18/03/17,Ath Bilbao,Real Madrid,1,2,A,0,1,A,12,9,5,4,1,4,5,5,1,4,0,0,5,4,1.67,5,4,1.67,5,4,1.65,4.5,4,1.67,5,4.22,1.71,5,4,1.7,4.75,4.2,1.73,46,5.07,4.85,4.22,4.02,1.74,1.69,42,1.63,1.58,2.46,2.35,22,1,1.75,1.71,2.26,2.18,5.83,4.45,1.6
SP1,18/03/17,Betis,Osasuna,2,0,H,2,0,H,9,13,5,5,12,15,5,0,0,3,0,0,1.44,4.33,8,1.45,4.33,7.5,1.45,4.5,7,1.48,4.2,7,1.5,4.55,7.6,1.44,4.5,7.5,1.5,4.6,7,46,1.52,1.47,4.6,4.41,8,7.15,44,1.85,1.78,2.12,2.03,21,-1,1.85,1.78,2.16,2.08,1.46,4.78,8.01
SP1,18/03/17,Eibar,Espanol,1,1,D,1,0,H,16,4,4,1,12,13,6,2,2,4,0,0,1.91,3.5,4.2,1.91,3.5,4.1,1.9,3.5,4.1,1.85,3.3,4.33,1.94,3.52,4.5,1.91,3.6,4.2,1.93,3.6,4.3,46,2,1.91,3.62,3.48,4.55,4.23,44,2.17,2.07,1.82,1.75,23,-0.5,1.97,1.91,2,1.96,1.92,3.49,4.73
SP1,19/03/17,Ath Madrid,Sevilla,3,1,H,1,0,H,15,9,8,2,16,14,2,2,4,3,0,0,1.67,3.8,5.25,1.67,3.9,5.25,1.65,4,5,1.62,3.75,5.5,1.67,4,5.83,1.67,3.8,5.5,1.67,4,5.5,46,1.73,1.66,4.1,3.89,5.95,5.3,45,1.89,1.82,2.04,1.97,20,-0.75,1.99,1.85,2.07,2.01,1.6,4.28,6.17
SP1,19/03/17,Barcelona,Valencia,4,2,H,2,2,D,28,6,12,5,4,12,6,3,3,4,0,1,1.13,9.5,19,1.14,8.5,18.5,1.15,8,16,1.12,9.5,19,1.13,11.25,20.5,1.14,9.5,17,1.13,9,17,45,1.16,1.13,11.25,9.58,20.5,18.03,34,1.23,1.2,4.85,4.32,21,-2.5,1.91,1.87,2.03,1.98,1.14,11.08,18.92
SP1,19/03/17,La Coruna,Celta,0,1,A,0,0,D,9,9,2,2,21,12,3,1,4,4,0,0,2.2,3.3,3.4,2.2,3.3,3.4,2.1,3.4,3.5,2.1,3.3,3.5,2.18,3.43,3.7,2.15,3.4,3.6,2.15,3.4,3.4,46,2.3,2.17,3.43,3.32,3.7,3.48,44,2.2,2.11,1.79,1.72,20,-0.25,1.9,1.86,2.07,2.01,2.59,3.21,3.11
SP1,19/03/17,Leganes,Malaga,0,0,D,0,0,D,14,8,2,1,11,16,6,7,4,2,0,0,2.4,3,3.3,2.4,3.1,3.2,2.3,3.1,3.35,2.4,2.9,3.3,2.45,3.08,3.48,2.45,3,3.3,2.45,3.13,3.3,46,2.5,2.42,3.15,3.05,3.48,3.26,41,2.62,2.49,1.6,1.52,20,-0.25,2.08,2.03,1.89,1.83,2.58,3.1,3.24
SP1,19/03/17,Sp Gijon,Granada,3,1,H,0,0,D,15,12,11,5,12,14,6,3,2,4,0,0,2,3.5,3.8,2,3.4,3.9,2,3.4,3.8,2,3.4,3.6,2.08,3.61,3.82,2.05,3.5,3.8,2,3.6,3.7,46,2.12,2.02,3.61,3.46,3.94,3.75,45,1.95,1.89,2,1.91,21,-0.25,1.79,1.75,2.2,2.13,1.91,3.75,4.33
SP1,31/03/17,Espanol,Betis,2,1,H,0,0,D,8,10,5,3,16,14,4,4,3,2,0,0,2.3,3.2,3.3,2.2,3.2,3.5,2.1,3.4,3.5,2.38,3,3.2,2.44,3.21,3.35,2.3,3.1,3.5,2.4,3.2,3.3,46,2.44,2.33,3.4,3.16,3.6,3.34,44,2.42,2.3,1.68,1.61,25,-0.25,2.07,2,1.93,1.87,2.3,3.21,3.66
SP1,01/04/17,Malaga,Ath Madrid,0,2,A,0,1,A,21,7,5,6,9,11,6,0,2,2,0,0,5.25,3.5,1.75,5.5,3.5,1.72,5.3,3.8,1.65,5,3.5,1.73,5.36,3.68,1.76,5.5,3.5,1.75,5.25,3.7,1.75,45,5.5,5.11,3.8,3.6,1.79,1.74,43,2.25,2.14,1.76,1.7,21,0.75,1.93,1.89,2.01,1.98,5.2,3.64,1.81
SP1,01/04/17,Osasuna,Ath Bilbao,1,2,A,0,2,A,8,9,6,4,19,9,6,3,4,2,0,0,6,4,1.57,6,4.1,1.57,6.5,4.2,1.5,5.25,4,1.62,5.84,4.32,1.62,6,4,1.62,6,4.2,1.6,45,6.5,5.73,4.32,4.08,1.65,1.6,43,1.83,1.76,2.14,2.05,24,1,1.87,1.82,2.11,2.04,5.5,4.19,1.67
SP1,01/04/17,Sociedad,Leganes,1,1,D,0,1,A,14,6,5,3,10,16,7,0,2,3,0,0,1.75,3.4,5.5,1.75,3.3,5.75,1.7,3.7,5,1.75,3.3,5,1.81,3.52,5.42,1.75,3.5,5.5,1.8,3.5,5.2,45,1.83,1.77,3.7,3.44,5.75,5.25,41,2.51,2.36,1.65,1.58,22,-0.5,1.83,1.78,2.2,2.1,2.05,3.18,4.59
SP1,01/04/17,Villarreal,Eibar,2,3,A,1,0,H,15,14,7,4,9,10,11,5,4,3,0,0,1.85,3.6,4.33,1.83,3.6,4.5,1.8,3.6,4.5,1.85,3.5,4.2,1.9,3.7,4.45,1.85,3.6,4.5,1.93,3.7,4.2,46,1.93,1.86,3.7,3.57,4.85,4.33,44,2.06,1.97,1.93,1.83,24,-0.5,1.93,1.88,2.04,1.99,1.94,3.6,4.39
SP1,02/04/17,Granada,Barcelona,1,4,A,0,1,A,7,26,5,13,15,10,1,9,1,3,1,0,13,7.5,1.2,12.5,7.25,1.2,18,7.5,1.15,13,7,1.18,16.5,7.85,1.2,13,7,1.22,15,7.5,1.18,46,18,13.91,7.85,7.21,1.23,1.19,36,1.33,1.3,3.75,3.46,22,2,2.12,2.05,1.86,1.82,15.4,7.95,1.21
SP1,02/04/17,Real Madrid,Alaves,3,0,H,1,0,H,18,12,6,3,12,16,3,3,0,2,0,0,1.11,10,19,1.12,9.5,19.5,1.12,9,20,1.13,9,19,1.14,10.59,19.74,1.12,9.5,21,1.13,10,23,45,1.16,1.13,10.82,9.39,24.76,19.39,35,1.31,1.28,3.97,3.65,23,-2.5,2.02,1.95,1.96,1.9,1.14,9.99,21.99
SP1,02/04/17,Sevilla,Sp Gijon,0,0,D,0,0,D,18,8,6,2,17,13,9,5,3,4,0,0,1.33,5.5,8.5,1.26,6.25,10,1.3,5.5,9.5,1.35,5.25,8,1.35,5.88,9.07,1.33,5.5,9,1.36,5.5,9,46,1.37,1.33,6.25,5.52,10,8.63,37,1.51,1.44,2.9,2.72,23,-1.5,1.98,1.94,1.96,1.92,1.29,6.65,10.95
SP1,02/04/17,Valencia,La Coruna,3,0,H,2,0,H,14,13,8,5,17,13,3,6,3,1,0,0,1.85,3.4,4.75,1.85,3.5,4.5,1.8,3.6,4.5,1.85,3.5,4.2,1.89,3.71,4.49,1.85,3.6,4.5,1.83,3.6,4.4,46,1.91,1.85,3.71,3.6,4.75,4.36,45,2,1.92,1.95,1.88,21,-0.75,2.18,2.09,1.81,1.78,1.88,3.68,4.61
SP1,03/04/17,Celta,Las Palmas,3,1,H,2,0,H,13,12,6,5,15,10,4,6,3,3,0,0,1.95,3.5,3.8,1.95,3.5,4,1.85,3.5,4.3,1.91,3.6,3.8,1.97,3.76,4.05,2,3.75,3.6,1.95,3.6,3.9,44,2.04,1.95,3.76,3.6,4.3,3.83,42,1.77,1.72,2.19,2.1,20,-0.5,1.97,1.93,1.98,1.93,1.93,3.87,4.13
SP1,04/04/17,Ath Bilbao,Espanol,2,0,H,2,0,H,13,5,5,2,19,16,5,1,1,3,0,0,1.5,4.2,7,1.5,4.1,7.25,1.65,3.8,5.3,1.5,4,7,1.53,4.27,7.49,1.5,4.2,7,1.53,4.2,7.5,46,1.65,1.52,4.32,4.12,7.64,6.98,45,2.14,2.02,1.88,1.79,23,-1,1.93,1.89,2.04,1.97,1.54,4.23,7.49
SP1,04/04/17,Ath Madrid,Sociedad,1,0,H,1,0,H,20,10,8,1,18,13,6,4,0,4,0,0,1.36,4.75,9.5,1.35,4.75,10,1.4,4.8,7.5,1.36,4.5,9.5,1.39,4.85,10.62,1.4,4.6,9,1.4,4.8,9.5,46,1.44,1.38,4.9,4.68,10.8,9.16,45,1.96,1.86,2.02,1.94,23,-1.25,1.95,1.89,2.02,1.97,1.38,4.93,11.05
SP1,04/04/17,Betis,Villarreal,0,1,A,0,0,D,15,6,3,2,12,15,5,2,2,2,0,0,2.75,3.2,2.7,2.6,3.2,2.8,2.65,3.3,2.65,2.7,3.1,2.7,2.82,3.23,2.81,2.7,3.2,2.8,2.8,3.2,2.8,45,2.85,2.73,3.3,3.17,2.87,2.75,43,2.28,2.18,1.72,1.67,24,0,1.99,1.93,1.99,1.93,2.84,3.32,2.73
SP1,05/04/17,Alaves,Osasuna,0,1,A,0,0,D,15,7,3,6,20,12,5,1,5,1,0,0,1.44,4.5,7,1.42,4.5,8,1.45,4.5,7,1.44,4.2,7.5,1.45,4.69,8.56,1.44,4.33,7.5,1.45,4.6,8,45,1.48,1.44,4.69,4.44,8.72,7.75,44,1.93,1.86,2.03,1.94,22,-1,1.77,1.72,2.3,2.17,1.63,3.78,7.02
SP1,05/04/17,Barcelona,Sevilla,3,0,H,3,0,H,15,7,7,3,16,13,4,4,4,2,0,1,1.22,7,11,1.25,6,12,1.25,6,11,1.25,6.5,10,1.27,7.25,10.64,1.25,6.5,12,1.25,7,11,45,1.28,1.25,7.25,6.71,12.12,10.58,35,1.25,1.22,4.5,4.22,22,-2,2.03,1.97,1.92,1.88,1.21,8.35,13.15
SP1,05/04/17,La Coruna,Granada,0,0,D,0,0,D,12,10,3,2,14,10,6,3,1,4,0,0,1.55,4,6.5,1.62,3.75,6,1.6,4,5.5,1.57,3.8,6,1.63,4.08,6.26,1.62,3.9,6,1.62,4,6,46,1.68,1.6,4.15,3.94,6.5,5.89,45,1.95,1.87,2.01,1.92,23,-1,2.09,2.05,1.87,1.82,1.52,4.51,7.04
SP1,05/04/17,Leganes,Real Madrid,2,4,A,2,3,A,14,18,3,8,14,16,4,4,2,1,0,0,8,5.25,1.33,8.75,5.25,1.34,8,5.3,1.35,8,4.75,1.36,10.58,5.3,1.36,9,5,1.36,9,5.25,1.36,45,10.58,8.87,5.4,5.1,1.4,1.35,41,1.67,1.61,2.4,2.29,23,1.5,1.87,1.82,2.13,2.04,7.05,4.2,1.56
SP1,05/04/17,Sp Gijon,Malaga,0,1,A,0,1,A,14,11,5,3,12,18,7,1,2,5,0,0,2.8,3.25,2.6,2.65,3.3,2.7,2.5,3.3,2.85,2.7,3.3,2.6,2.76,3.42,2.74,2.75,3.4,2.62,2.8,3.3,2.63,45,2.82,2.71,3.42,3.31,2.85,2.66,44,2.01,1.93,1.94,1.87,24,0,2.02,1.96,1.94,1.9,2.83,3.46,2.65
SP1,06/04/17,Eibar,Las Palmas,3,1,H,2,0,H,11,8,6,6,14,12,9,2,2,5,0,0,1.85,3.75,4.2,1.85,3.8,4,1.8,3.6,4.5,1.8,3.8,4,1.85,3.92,4.27,1.85,3.8,4.2,1.83,3.8,4.1,44,1.88,1.84,3.92,3.75,4.5,4.16,42,1.75,1.7,2.22,2.14,20,-0.5,1.86,1.83,2.1,2.04,1.68,4.35,5.1
SP1,06/04/17,Valencia,Celta,3,2,H,1,1,D,15,12,10,3,16,9,6,2,1,1,0,0,2,3.5,3.75,2,3.5,3.75,2,3.4,3.8,1.95,3.5,3.8,2.06,3.67,3.83,2.05,3.5,3.75,2,3.6,3.6,44,2.09,2.01,3.68,3.51,3.92,3.73,43,1.89,1.83,2.08,1.97,22,-0.5,2.05,2,1.93,1.87,2.23,3.62,3.38
SP1,07/04/17,Villarreal,Ath Bilbao,3,1,H,1,1,D,10,11,5,5,16,16,4,5,6,3,1,0,2.15,3.2,3.6,2.25,3.3,3.3,2.2,3.35,3.3,2.25,3.1,3.3,2.31,3.27,3.55,2.3,3.1,3.3,2.25,3.25,3.5,46,2.33,2.26,3.35,3.23,3.6,3.39,44,2.22,2.11,1.8,1.72,23,-0.25,1.98,1.94,1.98,1.94,2.32,3.2,3.62
SP1,08/04/17,Espanol,Alaves,1,0,H,0,0,D,15,9,6,0,11,13,5,3,3,3,0,0,2.1,3.1,3.8,2.15,3.25,3.6,2.1,3.4,3.5,2.2,3,3.5,2.31,3.15,3.71,2.2,3.1,3.5,2.25,3.2,3.6,47,2.34,2.21,3.4,3.16,3.82,3.57,42,2.64,2.47,1.58,1.53,24,-0.25,1.95,1.91,2.02,1.96,2.22,3.16,3.95
SP1,08/04/17,Malaga,Barcelona,2,0,H,1,0,H,8,11,4,3,26,20,2,3,4,3,0,1,8,5.25,1.36,8.25,5.75,1.33,9.5,5.5,1.3,8,5,1.36,9.16,5.62,1.36,8,5,1.36,9.5,5.4,1.36,47,9.71,8.65,5.75,5.24,1.4,1.35,40,1.55,1.48,2.74,2.6,23,1.5,1.94,1.9,2.02,1.96,9.24,6.11,1.34
SP1,08/04/17,Real Madrid,Ath Madrid,1,1,D,0,0,D,20,10,6,4,12,13,6,2,2,3,0,0,1.8,3.8,4.33,1.78,3.8,4.5,1.8,3.6,4.5,1.75,3.75,4.33,1.81,3.94,4.65,1.8,3.3,5,1.83,3.8,4.6,46,1.84,1.79,3.94,3.72,5,4.53,44,1.81,1.75,2.14,2.07,23,-1,2.46,2.39,1.63,1.61,1.76,3.86,5.16
SP1,08/04/17,Sevilla,La Coruna,4,2,H,3,2,H,19,9,13,4,19,15,4,2,3,3,0,0,1.5,4.33,6.5,1.5,4.1,7,1.5,4.2,6.5,1.53,4,6,1.56,4.39,6.67,1.53,4.2,6,1.55,4.33,6.5,46,1.57,1.53,4.49,4.21,7,6.37,44,1.83,1.74,2.16,2.08,23,-1,1.94,1.89,2.02,1.98,1.47,4.75,7.63
SP1,09/04/17,Celta,Eibar,0,2,A,0,1,A,12,11,3,6,10,16,0,3,1,3,0,0,2.25,3.4,3.25,2.25,3.5,3.1,2.4,3.3,2.95,2.25,3.3,3.2,2.31,3.47,3.34,2.4,3.1,3.1,2.3,3.4,3.13,47,2.4,2.31,3.5,3.35,3.34,3.16,46,1.97,1.88,1.98,1.92,22,-0.25,2.02,1.97,1.94,1.9,2.54,3.42,2.99
SP1,09/04/17,Granada,Valencia,1,3,A,0,2,A,21,17,5,8,9,13,5,2,2,2,0,0,3.5,3.4,2.1,3.5,3.3,2.15,3.3,3.35,2.2,3.3,3.6,2.05,3.55,3.71,2.13,3.3,3.4,2.15,3.4,3.6,2.15,46,3.55,3.37,3.71,3.51,2.25,2.14,44,1.83,1.75,2.15,2.07,21,0.25,2.09,2.02,1.89,1.85,3.43,3.65,2.2
SP1,09/04/17,Las Palmas,Betis,4,1,H,1,0,H,9,13,6,5,16,18,2,6,3,4,0,0,2.1,3.5,3.5,2.05,3.5,3.6,2.1,3.4,3.5,2.05,3.4,3.5,2.14,3.6,3.65,2.1,3.3,3.5,2.1,3.5,3.5,46,2.16,2.1,3.6,3.47,3.8,3.51,44,1.85,1.79,2.12,2.02,21,-0.25,1.85,1.82,2.11,2.06,2,3.8,3.9
SP1,09/04/17,Osasuna,Leganes,2,1,H,1,1,D,11,17,6,2,14,14,4,8,3,4,0,0,3.8,3.3,2.05,3.7,3.2,2.15,3.8,3.4,2,3.6,3.1,2.1,3.82,3.29,2.2,3.6,3.2,2.15,3.7,3.3,2.1,46,4,3.72,3.4,3.22,2.2,2.13,42,2.47,2.35,1.63,1.59,21,0.25,2.08,2.04,1.89,1.84,3.8,3.4,2.16
SP1,10/04/17,Sociedad,Sp Gijon,3,1,H,2,0,H,20,10,7,3,20,19,7,4,1,5,0,0,1.44,4.75,7,1.48,4.75,6,1.5,4.2,6.5,1.44,4.5,7,1.48,4.79,7.35,1.44,4.5,7,1.45,4.6,7,45,1.5,1.46,4.79,4.52,7.5,6.89,43,1.74,1.68,2.25,2.17,21,-1.5,2.36,2.3,1.67,1.64,1.5,4.59,7.31
SP1,14/04/17,Ath Bilbao,Las Palmas,5,1,H,3,1,H,18,8,7,2,22,10,14,5,1,2,0,0,1.44,4.5,7.5,1.48,4.4,6,1.4,4.8,7.5,1.5,4.33,6.5,1.53,4.6,6.79,1.44,4.6,6.5,1.5,4.6,7,45,1.53,1.48,4.8,4.49,7.5,6.61,39,1.63,1.57,2.55,2.39,21,-1,1.85,1.78,2.16,2.09,1.38,5.43,9.18
SP1,15/04/17,Ath Madrid,Osasuna,3,0,H,1,0,H,19,3,8,0,11,14,5,2,1,5,0,0,1.14,8,15,1.17,7,14,1.17,7.5,15,1.17,7,19,1.17,8.15,21.9,1.18,6.5,17,1.14,8,19,45,1.2,1.16,8.41,7.34,23,18.12,39,1.62,1.56,2.5,2.39,20,-2,1.95,1.91,2.01,1.96,1.22,7,18.5
SP1,15/04/17,Barcelona,Sociedad,3,2,H,3,2,H,16,14,9,7,15,17,5,4,3,2,0,0,1.17,6.5,17,1.18,6.75,13,1.2,7,12.5,1.22,6.5,13,1.22,7.55,15.4,1.2,7,12,1.2,7,13,45,1.26,1.21,7.55,6.84,17,13.28,34,1.4,1.36,3.45,3.09,21,-2,2.06,1.99,1.9,1.87,1.23,7.37,13.44
SP1,15/04/17,La Coruna,Malaga,2,0,H,0,0,D,11,11,4,3,15,17,1,4,3,4,0,0,2.25,3.2,3.25,2.2,3.2,3.3,2.3,3.2,3.25,2.25,3.25,3.3,2.3,3.39,3.44,2.2,3.3,3.3,2.3,3.3,3.4,45,2.34,2.26,3.4,3.28,3.44,3.29,42,2.2,2.12,1.79,1.71,19,-0.25,1.99,1.95,1.95,1.92,2.45,3.26,3.28
SP1,15/04/17,Sp Gijon,Real Madrid,2,3,A,1,1,D,4,18,2,6,17,12,4,8,5,1,0,0,6.5,5,1.4,7,4.75,1.4,8,5.3,1.35,6.5,4.75,1.44,7.17,5.09,1.46,7,5,1.4,7,5,1.45,45,8,6.95,5.3,4.88,1.48,1.42,34,1.5,1.44,3.1,2.69,20,1.5,1.8,1.75,2.2,2.12,7.5,5.4,1.43
SP1,16/04/17,Betis,Eibar,2,0,H,1,0,H,6,10,4,3,15,19,4,6,4,4,0,0,2.7,3.2,2.63,2.55,3.2,2.75,2.65,3.3,2.65,2.62,3.25,2.7,2.69,3.4,2.83,2.62,3.25,2.7,2.63,3.3,2.7,44,2.78,2.64,3.5,3.3,2.83,2.71,43,2.03,1.95,1.95,1.85,20,0,1.95,1.9,2.02,1.96,3,3.18,2.69
SP1,16/04/17,Granada,Celta,0,3,A,0,1,A,17,15,4,4,17,9,8,1,5,2,0,0,2.8,3.3,2.45,2.75,3.3,2.45,2.5,3.4,2.75,2.7,3.4,2.5,2.8,3.57,2.61,2.75,3.3,2.5,2.7,3.5,2.55,44,2.82,2.74,3.6,3.41,2.75,2.55,43,1.95,1.85,2.05,1.96,21,0,2.06,1.99,1.91,1.87,2.59,3.6,2.81
SP1,16/04/17,Leganes,Espanol,0,1,A,0,0,D,15,7,5,2,20,14,5,1,1,1,0,0,2,3.2,4,2.1,3.2,3.6,2.1,3.4,3.5,2.05,3,4,2.12,3.23,4.18,2.15,3,3.75,2.05,3.2,4,44,2.17,2.1,3.4,3.15,4.18,3.88,39,2.76,2.58,1.54,1.49,19,-0.25,1.86,1.78,2.16,2.11,2.24,3.18,3.86
SP1,16/04/17,Valencia,Sevilla,0,0,D,0,0,D,14,10,3,2,19,20,4,2,3,2,0,0,2.55,3.2,2.75,2.5,3.3,2.7,2.65,3.3,2.65,2.5,3.5,2.62,2.58,3.71,2.75,2.5,3.6,2.62,2.5,3.6,2.7,44,2.65,2.54,3.71,3.5,2.77,2.69,39,1.64,1.6,2.45,2.33,22,0,1.92,1.87,2.05,2,2.93,3.67,2.46
SP1,17/04/17,Alaves,Villarreal,2,1,H,2,0,H,11,11,5,5,8,13,5,11,2,4,0,0,3,3,2.55,2.9,3,2.55,2.95,3.3,2.4,2.9,3,2.5,2.97,3.19,2.7,2.9,3,2.6,3,3.1,2.55,42,3.05,2.92,3.3,3.08,2.7,2.59,38,2.6,2.45,1.58,1.54,18,0,2.12,2.04,1.86,1.82,3.27,3.26,2.45
SP1,21/04/17,Sevilla,Granada,2,0,H,1,0,H,28,9,12,2,18,11,7,2,1,2,0,0,1.17,8,15,1.19,7.5,12.5,1.22,6.5,12,1.17,8,15,1.18,8.7,16.85,1.17,7,15,1.17,8,19,45,1.22,1.17,8.98,7.88,19,15.45,35,1.34,1.29,3.85,3.49,22,-2.25,2,1.95,1.96,1.92,1.17,9.33,18.15
SP1,22/04/17,Espanol,Ath Madrid,0,1,A,0,0,D,10,13,2,3,13,10,5,3,3,2,0,0,5,3.6,1.75,5.5,3.6,1.7,5,3.7,1.7,5,3.6,1.73,5.37,3.8,1.75,5,3.4,1.75,5.5,3.7,1.73,44,5.5,5.09,3.85,3.6,1.8,1.74,42,2.25,2.14,1.77,1.7,20,0.75,1.95,1.91,2,1.95,5.68,3.5,1.79
SP1,22/04/17,Malaga,Valencia,2,0,H,2,0,H,10,13,4,2,16,13,7,6,3,3,0,0,2.2,3.4,3.3,2.25,3.3,3.3,2.3,3.3,3.15,2.2,3.3,3.25,2.26,3.55,3.38,2.3,3.3,3.1,2.2,3.5,3.4,44,2.31,2.24,3.6,3.44,3.4,3.21,43,1.91,1.81,2.11,2,23,-0.25,1.97,1.91,2,1.96,2.2,3.53,3.55
SP1,22/04/17,Osasuna,Sp Gijon,2,2,D,1,0,H,7,12,1,4,25,10,1,5,3,4,0,0,2.5,3.4,2.8,2.5,3.4,2.8,2.5,3.3,2.85,2.4,3.4,2.75,2.57,3.62,2.82,2.6,3.3,2.7,2.55,3.5,2.8,45,2.6,2.5,3.62,3.44,2.88,2.78,43,1.83,1.77,2.13,2.04,22,-0.25,2.25,2.16,1.77,1.74,2.95,3.69,2.44
SP1,22/04/17,Villarreal,Leganes,2,1,H,0,0,D,11,8,5,4,9,19,3,8,1,3,0,0,1.67,3.6,5.75,1.67,3.75,5.5,1.6,3.9,5.7,1.65,3.5,5.75,1.68,3.74,6.36,1.7,3.6,5,1.7,3.6,6.25,45,1.71,1.67,3.9,3.6,6.36,5.78,43,2.38,2.24,1.69,1.64,23,-1,2.33,2.26,1.71,1.67,1.6,4.02,6.91
SP1,23/04/17,Celta,Betis,0,1,A,0,0,D,8,17,4,6,16,15,5,6,3,5,0,0,2.05,3.4,3.75,2.05,3.4,3.7,1.9,3.5,4.1,2.05,3.4,3.6,2.12,3.52,3.77,2.15,3.3,3.4,2.1,3.5,3.7,45,2.15,2.07,3.52,3.4,4.1,3.69,44,1.99,1.91,1.95,1.88,23,-0.5,2.12,2.07,1.86,1.81,2.7,3.15,3.01
SP1,23/04/17,Las Palmas,Alaves,1,1,D,1,0,H,14,12,3,5,16,14,3,9,4,1,1,0,2,3.5,3.8,2,3.5,3.8,2,3.4,3.8,1.95,3.5,3.75,2.03,3.67,3.91,2,3.4,3.75,2,3.6,3.7,44,2.08,2,3.67,3.52,4.1,3.76,42,1.95,1.88,2,1.92,19,-0.25,1.77,1.72,2.25,2.17,2.09,3.52,3.88
SP1,23/04/17,Real Madrid,Barcelona,2,3,A,1,1,D,22,16,14,9,13,8,7,4,2,2,1,0,2.05,4,3.2,2.05,3.9,3.25,2.1,3.8,3.15,2.05,3.8,3.2,2.11,4.01,3.36,2.15,3.6,3.2,2.05,4,3.2,45,2.16,2.09,4.01,3.86,3.36,3.23,36,1.42,1.38,3.15,2.98,23,-0.5,2.13,2.07,1.87,1.81,1.98,4.16,3.64
SP1,23/04/17,Sociedad,La Coruna,1,0,H,1,0,H,17,5,3,1,16,16,11,1,1,3,0,0,1.57,4,6,1.62,3.9,5.75,1.65,3.8,5.3,1.57,3.8,5.75,1.61,4.2,6.21,1.62,3.75,5.5,1.62,4,6,45,1.65,1.6,4.2,3.96,6.21,5.77,44,1.88,1.82,2.08,1.99,23,-1,2.08,2.04,1.86,1.83,1.59,4.4,6.14
SP1,24/04/17,Eibar,Ath Bilbao,0,1,A,0,0,D,7,9,2,3,15,9,5,5,4,2,1,0,2.6,3.3,2.75,2.55,3.2,2.9,2.5,3.3,2.85,2.5,3.3,2.75,2.59,3.45,2.9,2.62,3.25,2.75,2.5,3.4,2.8,42,2.63,2.54,3.5,3.31,2.95,2.81,42,1.97,1.9,1.96,1.9,18,0.25,1.65,1.6,2.47,2.39,3,3.24,2.64
SP1,25/04/17,Ath Madrid,Villarreal,0,1,A,0,0,D,23,6,9,2,15,16,5,1,2,6,0,0,1.4,4.1,9,1.45,4.4,7.25,1.45,4.5,7,1.44,4,8,1.46,4.41,9.35,1.44,4,8.5,1.44,4.33,9.5,43,1.5,1.44,4.5,4.24,9.5,8.54,41,2.16,2.07,1.81,1.75,22,-1,1.8,1.75,2.19,2.13,1.44,4.49,9.66
SP1,25/04/17,Granada,Malaga,0,2,A,0,0,D,3,17,1,6,22,13,2,4,5,0,0,0,3.9,3.5,1.95,3.9,3.5,1.95,3.15,3.5,2.2,3.25,3.4,2.15,3.73,3.69,2.08,3.4,3.6,2.05,3.75,3.6,2.05,43,3.9,3.67,3.7,3.57,2.2,2.02,41,1.85,1.74,2.19,2.08,20,0.25,2.19,2.12,1.8,1.76,4.04,3.84,1.95
SP1,25/04/17,Sp Gijon,Espanol,1,1,D,1,0,H,16,14,6,5,9,11,7,2,1,2,0,0,2.05,3.4,3.6,2.15,3.4,3.4,2,3.5,3.7,2.15,3.3,3.3,2.18,3.55,3.59,2.1,3.3,3.5,2.2,3.4,3.5,43,2.25,2.14,3.55,3.39,3.7,3.48,42,2.06,1.98,1.89,1.82,22,-0.25,1.92,1.87,2.06,2,2.45,3.54,3.04
SP1,26/04/17,Barcelona,Osasuna,7,1,H,2,0,H,19,3,9,2,3,7,10,1,0,0,0,0,1.02,17,34,1.03,19.5,41,1.03,16,42,1.05,19,51,1.05,23.54,38.58,1.04,15,41,1.05,19,41,42,1.06,1.04,23.54,18.07,61.8,38.59,31,1.13,1.09,7.55,6.75,21,-3.5,1.8,1.75,2.21,2.13,1.05,22.5,47
SP1,26/04/17,La Coruna,Real Madrid,2,6,A,1,3,A,19,22,7,11,12,5,4,5,3,1,0,0,8,4.75,1.4,7.25,4.75,1.42,7.5,4.8,1.4,6.5,4.75,1.4,8.19,5.3,1.41,8,4.5,1.4,7.5,5,1.4,43,8.2,7.65,5.43,4.93,1.43,1.4,35,1.5,1.44,2.8,2.7,20,1.5,1.84,1.79,2.12,2.07,7.77,5.62,1.4
SP1,26/04/17,Leganes,Las Palmas,3,0,H,0,0,D,16,7,5,0,14,17,6,3,1,0,0,0,1.73,3.6,4.75,1.65,3.8,5.5,1.7,3.9,4.7,1.75,3.6,4.75,1.7,3.96,5.51,1.73,3.75,4.5,1.75,3.8,5.2,43,1.76,1.71,3.96,3.78,5.51,5.05,42,1.96,1.87,2.01,1.92,20,-0.5,1.74,1.7,2.3,2.23,1.51,4.65,6.99
SP1,26/04/17,Valencia,Sociedad,2,3,A,0,2,A,14,8,3,2,15,21,2,3,4,3,0,0,2.6,3.4,2.7,2.55,3.4,2.75,2.4,3.5,2.8,2.5,3.5,2.62,2.67,3.69,2.67,2.62,3.25,2.7,2.63,3.6,2.7,43,2.67,2.57,3.69,3.51,2.8,2.67,40,1.68,1.63,2.38,2.26,20,-0.25,2.29,2.23,1.74,1.7,2.87,3.46,2.62
SP1,27/04/17,Alaves,Eibar,0,0,D,0,0,D,14,6,4,4,13,14,3,2,4,2,0,1,2.75,3.2,2.7,2.6,3.25,2.8,2.5,3.4,2.75,2.7,3.1,2.7,2.73,3.28,2.87,2.7,3.1,2.7,2.7,3.25,2.7,43,2.77,2.68,3.4,3.2,2.87,2.74,41,2.25,2.15,1.75,1.69,18,-0.25,2.35,2.29,1.69,1.66,2.55,3.13,3.24
SP1,27/04/17,Ath Bilbao,Betis,2,1,H,0,0,D,18,9,9,3,10,17,11,1,1,3,0,0,1.4,4.5,9,1.36,5,8.5,1.4,4.8,7.5,1.36,4.75,8.5,1.37,5.32,9.68,1.36,4.8,8.5,1.33,5,9.5,41,1.4,1.36,5.32,4.93,9.75,8.89,38,1.68,1.62,2.39,2.27,21,-1.5,2.1,2.03,1.88,1.83,1.4,5.04,9.26
SP1,27/04/17,Sevilla,Celta,2,1,H,0,0,D,16,10,5,1,20,18,5,1,1,2,0,1,1.33,5.5,8,1.36,5,8.5,1.35,5.3,8,1.33,5.25,9,1.38,5.47,8.7,1.33,5,9,1.33,5.5,8,42,1.38,1.35,5.8,5.3,9.5,8.3,34,1.43,1.39,3.05,2.88,21,-1.5,2.03,1.98,1.92,1.88,1.38,5.35,9
SP1,28/04/17,Villarreal,Sp Gijon,3,1,H,1,0,H,18,14,6,7,9,10,4,7,2,1,0,0,1.4,4.75,8,1.44,4.6,6.25,1.35,5.3,8,1.44,4.8,6.5,1.43,5.05,7.43,1.44,4.75,6.5,1.44,4.8,8,44,1.48,1.42,5.3,4.78,8,7.33,40,1.62,1.58,2.48,2.34,21,-1.5,2.23,2.16,1.78,1.73,1.46,4.89,7.6
SP1,29/04/17,Espanol,Barcelona,0,3,A,0,0,D,6,15,3,9,19,18,4,5,3,0,0,0,15,7.5,1.18,15,6.25,1.18,15,7.5,1.17,12,6.5,1.18,15.69,7.7,1.2,15,6,1.2,11.5,7.5,1.2,42,15.69,14.57,7.7,7.13,1.22,1.19,33,1.4,1.36,3.32,3.03,19,2,2.08,2.01,1.93,1.85,13.5,7.1,1.24
SP1,29/04/17,Las Palmas,Ath Madrid,0,5,A,0,3,A,15,8,3,7,6,13,7,1,4,4,1,0,5.25,3.6,1.73,4.6,3.8,1.7,4.5,3.6,1.8,4.8,3.75,1.72,4.89,4.14,1.71,5,3.6,1.73,5,4,1.73,43,5.25,4.79,4.14,3.86,1.8,1.72,42,1.95,1.81,2.07,1.99,20,0.75,1.99,1.95,1.98,1.92,6.99,4.82,1.49
SP1,29/04/17,Real Madrid,Valencia,2,1,H,1,0,H,20,9,5,2,13,10,2,3,3,4,0,0,1.17,9,13,1.16,7.75,12,1.17,7.5,15,1.18,9.5,11,1.19,9.15,12.87,1.18,7,13,1.18,9,13,43,1.2,1.17,9.5,8.52,15,12.9,33,1.15,1.12,6.35,5.75,19,-2.5,2,1.94,1.98,1.93,1.14,11.5,17
SP1,29/04/17,Sociedad,Granada,2,1,H,1,0,H,13,5,5,3,14,16,7,1,0,3,0,0,1.17,7.5,17,1.16,7.5,13.5,1.17,7.5,15,1.15,8,19,1.18,8.08,17.91,1.15,7.5,17,1.17,8,15,42,1.2,1.16,8.3,7.64,19,16.89,31,1.43,1.36,3.25,3.04,19,-2.25,2.02,1.99,1.94,1.89,1.18,8.75,17.7
SP1,30/04/17,Betis,Alaves,1,4,A,1,0,H,11,9,3,5,14,16,4,0,1,5,0,0,2.1,3.2,3.8,2.15,3.1,3.5,2.1,3.3,3.6,2.15,3.25,3.5,2.17,3.24,3.83,2.25,3.1,3.4,2.15,3.25,3.6,43,2.25,2.17,3.3,3.17,3.83,3.61,38,2.54,2.44,1.58,1.53,19,-0.25,1.89,1.86,2.05,2.01,1.6,4.25,6.34
SP1,30/04/17,Celta,Ath Bilbao,0,3,A,0,1,A,5,22,0,12,8,11,0,11,1,1,0,0,4.5,3.7,1.8,4.25,3.4,1.85,,,,4.2,3.5,1.8,4.63,3.79,1.82,4.2,3.5,1.85,4.75,3.75,1.75,42,4.75,4.44,3.8,3.63,1.92,1.81,41,1.97,1.91,1.95,1.88,18,0.75,1.89,1.84,2.08,2.04,5.46,3.73,1.75
SP1,30/04/17,Eibar,Leganes,2,0,H,0,0,D,9,12,5,1,12,9,2,11,1,1,0,0,2.1,3.3,3.75,2,3.2,3.9,,,,2.15,3.2,3.5,2.21,3.28,3.66,2.1,3.25,3.6,2.15,3.3,3.5,42,2.21,2.14,3.4,3.22,3.9,3.62,39,2.35,2.25,1.67,1.63,19,-0.25,1.91,1.86,2.06,2.01,2.32,3.08,3.78
SP1,30/04/17,Osasuna,La Coruna,2,2,D,1,1,D,16,15,5,5,9,11,7,7,2,3,0,0,3.9,3.6,1.95,3.6,3.4,2,4.2,3.6,1.85,3.8,3.6,2,3.88,3.65,2.05,3.6,3.4,2.05,3.75,3.6,2,43,4.2,3.72,3.65,3.53,2.06,2,41,1.91,1.83,2.05,1.97,19,0.5,1.93,1.88,2.04,1.99,3.67,3.4,2.21
SP1,01/05/17,Malaga,Sevilla,4,2,H,1,1,D,11,9,5,4,14,18,1,3,3,5,0,0,4,3.6,1.91,3.7,3.5,1.95,4.1,3.5,1.9,3.75,3.5,1.9,3.9,3.8,1.96,3.8,3.6,1.91,3.5,3.75,2,0,4,3.73,3.8,3.68,2.02,1.96,35,1.68,1.61,2.4,2.27,17,0.5,2.02,1.9,2.02,1.96,4.09,4.1,1.88
SP1,05/05/17,Sevilla,Sociedad,1,1,D,1,0,H,11,9,3,3,20,10,10,3,4,3,0,1,1.62,4,5.5,1.6,4.2,5.25,1.7,3.9,4.7,1.66,4.33,5.2,1.62,4.45,5.66,1.65,4,4.8,1.62,4.33,5.4,44,1.7,1.62,4.45,4.2,5.66,5.26,39,1.6,1.56,2.52,2.4,22,-1,2.07,2.03,1.88,1.84,1.68,4.15,5.46
SP1,06/05/17,Ath Madrid,Eibar,1,0,H,0,0,D,14,7,5,3,6,10,6,5,3,3,1,0,1.3,5.25,11,1.28,5.5,11.5,1.25,6,11,1.28,5.5,11,1.3,5.47,14.45,1.3,5,11,1.33,5.25,12,43,1.33,1.3,6,5.19,14.45,11.81,42,1.9,1.84,2.05,1.96,21,-1.5,2,1.95,1.94,1.91,1.32,5.45,12.4
SP1,06/05/17,Barcelona,Villarreal,4,1,H,2,1,H,20,8,8,4,10,13,4,3,2,4,0,0,1.14,8.5,17,1.16,7.75,16.5,1.17,7.5,15,1.15,8.5,19,1.18,9.15,16.05,1.17,7,17,1.18,8.5,15,43,1.18,1.16,9.15,8.13,19,15.89,33,1.25,1.23,4.2,3.99,20,-2.5,2.14,2.08,1.84,1.79,1.14,10.65,19
SP1,06/05/17,Granada,Real Madrid,0,4,A,0,4,A,13,16,3,8,14,8,6,3,1,0,0,0,21,9,1.13,18.5,9.5,1.12,20,9,1.12,19,8.5,1.13,24.11,11.3,1.12,15,8.5,1.14,17,10,1.12,43,28,21.03,11.3,9.77,1.14,1.12,33,1.2,1.17,5.25,4.8,20,2.5,2.17,2.1,1.82,1.77,30.23,13.6,1.09
SP1,06/05/17,Sp Gijon,Las Palmas,1,0,H,0,0,D,16,8,3,2,19,15,5,4,4,3,0,0,1.5,4.75,5.5,1.55,4.75,5.25,1.5,4.5,5.5,1.5,4.25,5.25,1.56,4.98,5.59,1.57,4.5,5,1.55,4.8,5.75,43,1.61,1.55,4.98,4.63,5.75,5.38,34,1.48,1.43,2.85,2.73,22,-1,1.92,1.87,2.04,1.99,1.53,4.87,6.21
SP1,07/05/17,Alaves,Ath Bilbao,1,0,H,0,0,D,9,20,3,6,14,11,3,10,1,4,0,0,4.75,3.5,1.8,4.5,3.75,1.78,4.6,3.7,1.75,4.4,3.4,1.83,4.83,3.7,1.84,4.5,3.4,1.83,4.8,3.7,1.83,43,5.05,4.67,3.75,3.56,1.85,1.81,41,2.16,2.08,1.79,1.73,19,0.75,1.85,1.8,2.14,2.08,4.67,3.5,1.93
SP1,07/05/17,La Coruna,Espanol,1,2,A,0,2,A,21,9,5,3,10,14,12,4,1,2,0,0,2,3.4,4,2,3.5,3.8,2,3.4,3.8,2,3.5,3.9,2.05,3.6,3.92,2.05,3.25,3.8,2,3.5,3.8,42,2.09,2.03,3.6,3.41,4.01,3.79,40,2.16,2.06,1.82,1.75,19,-0.5,2.08,2.03,1.88,1.84,2.32,3.29,3.51
SP1,07/05/17,Malaga,Celta,3,0,H,1,0,H,14,5,8,2,13,18,2,1,2,4,0,0,1.4,4.5,7.5,1.42,4.6,7.75,1.4,5,7,1.4,4.4,8,1.44,4.85,8.25,1.4,4.5,8,1.4,4.75,7,40,1.5,1.42,5,4.66,8.25,7.59,40,1.8,1.73,2.17,2.09,19,-1.25,2.14,1.96,1.97,1.92,1.48,4.67,7.62
SP1,07/05/17,Valencia,Osasuna,4,1,H,2,0,H,19,9,8,4,15,11,9,2,3,2,0,0,1.22,6.5,13,1.22,6.5,13,1.3,5.5,9.5,1.18,6.5,15,1.25,7.14,12.5,1.25,6,11,1.25,6.5,13,43,1.3,1.23,7.14,6.57,15,12.01,33,1.4,1.37,3.25,3,20,-2,2.12,2.06,1.86,1.81,1.27,6.75,11.8
SP1,08/05/17,Leganes,Betis,4,0,H,2,0,H,6,13,4,3,18,13,2,2,3,0,0,0,1.65,3.8,5.75,1.65,3.75,5.5,1.55,4,6.2,,,,1.71,3.85,5.73,1.67,3.6,5.5,1.67,3.75,5.4,43,1.71,1.67,4,3.73,6.2,5.45,41,2.18,2.09,1.8,1.72,19,-0.75,1.94,1.89,2.04,1.98,1.75,3.89,5.29
SP1,13/05/17,Espanol,Valencia,0,1,A,0,0,D,15,9,3,3,19,14,7,2,0,4,0,0,2.4,3.3,3,2.35,3.3,3.1,2.2,3.4,3.25,2.35,3.4,3.1,2.36,3.61,3.13,2.4,3.3,2.9,2.4,3.5,3,45,2.4,2.36,3.61,3.42,3.25,3.01,42,1.8,1.73,2.2,2.08,22,-0.25,2.09,2.05,1.9,1.83,2.49,3.42,3.06
SP1,13/05/17,Osasuna,Granada,2,1,H,1,1,D,19,9,7,3,11,9,8,3,1,3,0,0,1.8,3.8,4.33,1.75,3.9,4.5,1.9,3.5,4.1,1.72,3.75,4.33,1.76,4.06,4.86,1.75,3.75,4.5,1.75,4,4.6,45,1.9,1.76,4.06,3.84,4.86,4.5,41,1.66,1.61,2.44,2.28,19,-0.75,2.01,1.95,1.95,1.91,1.63,4.37,5.7
SP1,14/05/17,Alaves,Celta,3,1,H,3,0,H,11,15,4,4,11,13,4,4,1,3,0,0,1.8,3.4,5,1.78,3.5,5,1.65,4,5,1.72,3.4,4.8,1.75,3.81,5.33,1.8,3.3,5,1.8,3.6,5,45,1.8,1.76,4,3.58,5.33,4.94,43,2.17,2.11,1.77,1.72,19,-0.75,2.04,1.99,1.92,1.87,2.07,3.39,4.12
SP1,14/05/17,Ath Bilbao,Leganes,1,1,D,1,0,H,15,5,6,2,12,8,10,1,2,7,0,0,1.44,4.2,8.5,1.45,4.5,7,1.4,5,7,1.4,4.6,9,1.43,4.78,8.76,1.4,4.5,8,1.4,4.6,8.5,45,1.45,1.42,5,4.5,9,8.12,44,1.94,1.87,2,1.93,19,-1.25,2.01,1.97,1.94,1.9,1.51,4.54,7.23
SP1,14/05/17,Betis,Ath Madrid,1,1,D,0,0,D,13,5,5,2,7,16,3,5,4,4,0,0,7,3.75,1.57,5.75,3.9,1.62,6.2,4,1.55,6.5,3.75,1.53,6.37,4.13,1.61,6,3.8,1.57,6,3.9,1.6,45,7,6.05,4.13,3.9,1.65,1.59,43,2.1,2.04,1.83,1.76,20,1,1.84,1.8,2.13,2.07,6.65,4.35,1.56
SP1,14/05/17,Eibar,Sp Gijon,0,1,A,0,1,A,10,11,2,4,9,10,5,6,2,2,0,0,2,3.75,3.5,2,3.7,3.6,2.1,3.6,3.3,2.05,3.9,3.3,2.01,4.25,3.48,2,3.75,3.4,1.95,4,3.5,45,2.1,2,4.25,3.89,3.61,3.44,40,1.6,1.56,2.53,2.41,20,-0.5,2.02,1.98,1.94,1.9,1.83,4.38,4.11
SP1,14/05/17,Las Palmas,Barcelona,1,4,A,0,2,A,11,11,5,5,13,15,3,6,0,1,0,0,26,11,1.08,23,11,1.09,20,9,1.12,23,12,1.06,23,12.8,1.11,21,10,1.1,21,12,1.09,45,26,20.72,12.8,10.9,1.13,1.1,35,1.13,1.11,7,6.35,18,3,1.96,1.91,2.04,1.95,28.5,11.8,1.11
SP1,14/05/17,Real Madrid,Sevilla,4,1,H,2,0,H,14,11,7,6,14,19,4,5,4,2,0,0,1.17,8,15,1.19,8,12,1.17,8,13,1.15,8.5,13,1.2,8.89,13.09,1.2,7,11,1.18,8.5,12,45,1.22,1.19,9,8,15,12.02,35,1.19,1.15,5.64,5.05,19,-2.25,2.03,1.98,1.93,1.88,1.23,8.02,11.73
SP1,14/05/17,Sociedad,Malaga,2,2,D,1,1,D,15,9,5,4,10,16,9,3,1,2,0,0,1.53,4.1,6.5,1.55,4.2,6,1.5,4.2,6.5,1.53,4.2,6,1.58,4.45,6.12,1.57,3.8,6,1.57,4.33,5.5,45,1.6,1.56,4.7,4.22,6.5,5.88,41,1.64,1.6,2.44,2.31,20,-1,2,1.95,1.95,1.91,1.48,4.78,7.32
SP1,14/05/17,Villarreal,La Coruna,0,0,D,0,0,D,21,3,4,1,15,21,11,3,2,4,0,0,1.5,4.33,6.5,1.55,4.33,5.75,1.5,4.2,6.5,1.5,4.33,6.5,1.54,4.59,6.49,1.57,3.8,6,1.53,4.4,6,45,1.59,1.54,4.59,4.28,6.5,6.02,41,1.73,1.64,2.32,2.22,20,-1,1.95,1.91,2,1.96,1.48,4.84,7.33
SP1,17/05/17,Celta,Real Madrid,1,4,A,0,1,A,17,13,6,8,17,9,4,6,4,2,1,0,13,7,1.2,11,7,1.22,15,6.5,1.2,12,6.5,1.2,12.87,7.79,1.23,11,6.5,1.22,13,7,1.22,44,15,11.67,7.79,7.06,1.25,1.22,34,1.23,1.21,4.5,4.25,18,2,2.07,2.02,1.88,1.85,12.25,8.1,1.23
